0
3
32
2
0
2
3
1
118
31
23
0
0
0
2
4
212
14
0
0
0
0
0
5
47
0
0
0
0
0
0
0
1
3
8
1
0
1
18
13
137
7
3
0
0
0
6
32
212
2
0
0
0
0
0
20
62
0
0
0
0
0
0
0
0
5
33
10
0
0
1
1
129
31
16
0
0
0
1
6
212
22
0
0
0
0
0
6
61
0
0
0
0
0
0
1
0
0
4
2
0
6
5
0
106
9
3
0
0
2
4
9
212
7
0
0
0
0
0
10
48
0
0
0
0
0
0
1
52
1
0
8
1
0
0
38
93
12
2
0
0
0
0
51
82
5
4
0
0
0
0
127
35
0
0
0
0
0
0
127
53
14
14
99
1
0
0
7
127
85
36
2
0
0
0
22
49
43
122
25
0
0
0
43
68
4
17
13
0
0
0
127
14
6
18
127
4
0
0
1
127
46
21
34
0
0
0
34
127
40
77
50
0
0
0
10
39
8
40
92
7
0
0
21
0
4
17
76
5
0
0
0
103
48
41
43
0
0
0
7
126
19
2
7
2
0
0
39
3
0
2
38
55
6
2
8
2
0
0
0
0
1
147
46
1
0
0
0
0
1
147
57
0
1
1
4
29
90
147
22
36
11
2
4
15
43
147
97
13
1
0
4
7
3
13
14
14
0
0
2
48
54
92
40
57
13
18
20
39
35
78
73
79
65
43
20
17
8
5
16
7
0
0
5
15
5
1
3
37
5
0
4
147
35
5
7
147
54
9
2
24
5
5
21
44
24
24
15
32
14
6
18
0
0
0
1
23
11
1
1
47
8
0
0
96
52
1
2
147
29
0
0
8
4
4
17
14
2
6
11
44
19
11
18
27
10
11
18
24
1
3
9
22
5
2
17
147
6
0
0
112
31
1
2
25
0
0
0
16
5
1
1
0
0
0
2
41
14
8
19
44
19
18
16
32
3
5
29
147
22
5
3
147
19
6
9
29
0
0
16
11
2
1
3
7
0
0
7
9
2
1
13
80
58
37
15
38
26
73
65
60
17
21
22
42
58
105
35
10
0
0
5
5
5
33
21
11
0
0
3
12
32
147
86
60
15
4
6
46
133
147
12
3
2
2
10
0
27
147
19
0
0
0
0
0
14
147
21
0
0
0
0
1
0
0
0
1
31
58
3
7
5
11
20
9
40
51
8
36
6
11
18
6
17
33
29
17
6
11
25
29
0
0
5
52
8
3
0
0
21
128
40
129
38
51
58
4
4
17
43
49
20
70
129
32
1
1
9
21
4
3
12
31
18
17
13
129
44
10
0
0
0
5
16
129
61
12
10
7
0
0
18
64
4
6
112
129
1
0
6
2
1
1
24
67
42
18
7
123
64
38
0
0
0
0
6
129
64
16
1
1
0
3
63
55
13
18
76
89
0
0
26
2
18
120
77
53
5
1
1
67
110
29
12
3
6
1
9
80
66
2
1
0
1
17
36
3
13
4
37
53
38
17
9
13
24
7
25
35
10
0
1
43
25
5
0
0
0
30
115
129
49
7
9
8
0
7
70
17
21
10
52
129
44
3
1
12
12
2
12
40
32
31
56
76
38
17
3
1
1
16
46
129
54
0
2
8
10
6
37
28
2
0
32
129
82
4
8
19
2
0
10
116
61
29
40
91
16
5
3
14
12
4
16
129
27
0
6
15
22
0
17
5
1
0
29
129
111
0
1
52
14
0
4
102
47
1
6
114
21
15
3
0
0
45
147
10
7
34
38
25
16
89
147
0
0
2
9
31
48
19
4
0
0
0
0
1
22
52
15
36
10
3
3
1
0
39
118
147
6
0
0
6
9
68
147
43
0
0
13
84
90
15
18
0
0
1
12
20
40
63
25
33
36
18
14
1
0
0
0
147
59
4
3
2
0
0
1
64
8
23
84
41
7
0
0
0
0
51
95
21
6
1
0
32
18
13
85
4
0
0
0
147
48
2
1
0
0
0
0
37
5
3
10
12
17
1
0
0
0
8
20
48
37
2
0
27
6
0
0
7
27
41
35
40
73
10
3
29
49
17
5
140
93
1
0
2
1
3
27
89
10
0
4
19
101
82
44
30
32
13
23
37
13
14
4
75
54
5
0
0
9
27
36
140
49
2
3
1
0
5
50
56
22
6
75
98
27
10
11
12
28
23
40
42
25
3
4
99
14
1
2
16
38
23
39
140
34
0
0
0
0
2
93
47
7
0
23
20
0
3
61
7
17
4
10
41
140
44
3
140
17
0
0
14
49
21
43
140
53
0
0
0
0
0
31
22
10
0
0
0
0
0
6
44
106
46
31
4
22
27
1
108
129
73
11
7
15
10
13
3
46
85
70
66
50
10
4
0
117
129
43
10
1
0
0
66
129
86
21
0
0
0
1
129
114
49
40
3
5
2
10
16
112
129
70
15
21
8
10
21
129
73
0
0
0
0
4
21
56
59
62
4
4
3
3
129
15
14
23
4
9
1
20
27
17
18
4
5
31
19
23
22
32
3
0
0
0
1
10
0
0
4
9
1
6
5
1
4
1
1
3
0
0
0
0
0
0
0
0
0
0
0
0
0
0
0
0
0
0
0
0
4
28
94
0
0
0
0
0
2
34
135
9
0
0
0
0
10
135
101
0
0
0
0
0
0
135
108
0
0
0
0
0
68
33
16
1
1
0
0
13
42
25
43
13
14
8
2
7
135
135
27
0
0
0
0
10
57
135
40
0
0
0
0
1
60
91
5
3
1
0
0
1
37
18
10
44
28
8
0
4
135
14
1
3
2
1
0
46
133
11
0
0
0
0
0
24
20
58
4
0
9
9
0
0
15
22
4
5
38
26
0
1
135
89
1
0
3
2
0
12
98
32
0
0
0
0
0
4
81
29
0
1
4
2
2
32
4
4
0
7
127
30
3
4
34
60
35
14
63
14
1
2
49
82
37
2
0
0
0
3
55
104
10
8
22
1
0
1
20
10
5
26
127
86
1
5
127
96
16
9
39
31
3
20
37
45
37
38
15
3
1
7
32
75
26
18
30
9
0
0
18
7
7
127
127
45
0
2
127
16
3
32
39
9
8
127
43
25
10
6
7
5
14
78
14
22
11
15
75
27
1
6
3
3
1
10
127
113
0
0
41
39
10
5
22
11
1
42
54
20
2
0
0
0
8
65
0
0
9
64
52
18
2
0
16
8
1
45
50
38
12
3
124
123
0
0
5
5
1
7
89
43
1
6
8
14
8
13
10
5
10
61
41
28
13
8
35
9
6
114
124
23
3
26
124
54
0
2
20
7
6
109
35
14
0
0
22
67
29
18
15
2
1
5
36
50
41
36
39
38
3
15
124
108
16
8
124
99
1
4
17
12
6
21
22
1
0
0
45
112
14
7
0
0
0
1
36
85
47
2
75
22
1
2
26
50
32
15
124
38
3
6
6
6
1
4
1
1
1
25
93
40
1
0
37
40
42
2
2
0
0
14
110
73
36
7
7
2
1
31
137
137
8
0
0
0
0
41
14
35
3
0
0
0
0
6
108
61
5
6
4
1
1
10
104
19
11
36
35
8
0
44
137
14
0
0
1
0
0
130
40
4
0
0
1
1
2
15
77
93
5
3
21
6
0
0
75
56
7
8
52
16
0
3
137
110
1
0
1
0
0
8
43
12
1
3
5
0
0
1
43
61
14
18
29
2
0
0
34
137
45
10
14
3
0
0
126
137
4
0
0
0
0
0
11
14
2
2
2
3
1
1
1
0
0
0
81
80
1
0
114
41
0
0
45
34
1
5
39
24
4
14
23
19
1
4
52
19
2
5
6
5
1
7
11
0
0
13
126
44
0
1
126
13
0
0
52
17
1
5
53
4
0
0
73
54
3
9
101
2
0
0
5
10
2
30
29
2
0
3
126
112
1
6
126
22
0
0
33
29
2
14
53
2
0
0
109
58
4
13
126
9
0
0
5
7
1
17
49
19
0
0
126
49
0
0
126
60
0
0
36
17
0
1
53
3
0
0
111
71
3
11
126
5
0
0
2
4
1
15
0
0
0
0
141
38
0
0
128
23
0
0
93
30
0
0
49
21
5
21
10
1
0
0
4
0
0
20
118
0
0
0
6
0
0
0
141
67
0
1
141
17
0
0
86
30
0
7
66
10
0
9
23
7
0
1
3
3
0
31
127
1
0
0
17
0
0
0
141
82
1
3
141
18
0
0
59
23
0
14
61
12
5
10
16
0
0
8
1
1
2
23
101
1
0
0
30
5
0
0
141
48
0
2
141
54
0
0
28
7
0
1
34
18
2
4
11
6
6
1
0
1
0
25
56
2
1
0
11
1
0
2
29
47
19
7
104
9
2
2
5
4
5
23
13
3
4
28
68
12
0
2
49
0
0
16
131
35
0
22
44
8
3
14
55
68
22
14
131
69
17
12
3
7
9
27
17
18
19
72
124
18
0
3
86
3
0
27
131
21
0
7
33
18
10
31
59
8
1
8
131
30
5
5
3
10
12
92
17
3
2
24
122
121
18
25
82
20
3
18
131
48
0
0
5
7
14
29
36
5
1
9
67
56
14
7
2
3
4
67
15
16
3
33
96
24
4
12
46
12
2
25
116
11
2
13
5
35
15
5
3
18
38
12
124
52
9
0
0
1
12
38
145
16
3
27
19
0
0
27
74
45
7
23
17
0
0
14
1
56
145
45
4
2
15
7
65
57
37
29
47
23
7
31
145
19
8
30
7
6
3
65
91
97
19
32
4
1
0
6
2
0
27
17
9
11
123
54
65
15
11
58
66
18
39
35
145
45
4
15
18
6
2
6
127
11
2
10
16
6
3
40
18
6
4
22
26
7
17
25
72
0
0
6
5
7
42
62
145
9
0
11
8
1
5
15
71
27
4
19
11
0
0
6
13
27
1
1
3
20
30
7
70
122
5
0
0
3
3
14
142
65
7
5
4
0
0
38
11
3
2
68
37
0
0
2
53
45
15
12
2
0
0
7
142
142
36
0
0
0
0
12
48
142
79
15
24
4
0
2
3
6
2
30
47
4
0
0
34
12
57
30
3
8
16
7
142
30
9
1
2
1
3
78
96
15
11
40
88
11
2
22
5
1
0
21
42
9
4
7
11
4
4
3
2
14
79
22
142
4
0
0
0
2
10
104
142
6
1
54
60
0
0
34
5
2
1
33
50
2
1
3
9
2
1
8
50
4
0
1
119
4
0
2
23
3
0
3
32
3
0
0
10
85
10
2
1
32
24
0
1
83
81
2
18
2
1
13
64
24
1
5
119
8
1
6
34
19
2
14
83
37
0
3
119
119
1
5
96
119
48
28
34
44
7
7
21
3
2
32
31
1
0
4
119
19
6
26
29
1
0
3
96
7
1
106
119
10
0
38
119
27
7
58
31
5
61
119
20
2
0
6
14
0
0
2
90
2
0
6
14
0
0
6
33
1
11
103
13
0
0
8
2
1
78
80
1
1
42
54
0
0
28
29
0
2
86
77
6
0
0
10
41
1
12
81
15
0
0
12
73
2
0
9
10
0
0
5
25
1
0
7
20
5
80
118
103
12
13
66
118
4
0
42
82
3
3
118
25
1
0
12
118
15
6
30
31
2
0
7
21
2
3
37
39
28
4
20
118
118
38
39
118
113
0
11
92
36
0
7
37
16
2
31
118
3
1
6
69
19
1
7
17
1
1
14
3
86
68
1
3
54
33
1
20
105
10
3
20
6
0
0
15
3
0
15
118
0
0
3
51
2
0
2
16
1
1
13
32
1
0
8
74
22
2
16
59
0
0
16
146
12
0
10
146
5
0
0
4
0
0
26
32
7
2
4
42
23
0
1
94
13
9
43
63
1
0
9
47
1
1
53
146
2
0
13
146
6
0
1
14
1
0
54
45
0
0
20
91
38
0
7
112
5
0
7
73
16
2
23
36
17
6
36
146
11
0
1
146
52
4
4
11
0
0
9
43
3
0
28
52
2
0
4
80
14
0
12
32
4
0
7
18
13
7
56
121
4
0
0
146
37
5
6
4
0
0
3
30
4
1
7
25
0
0
2
11
5
2
0
2
14
53
21
7
0
0
0
17
62
38
16
124
10
0
0
9
20
7
22
20
2
0
0
46
13
0
1
3
0
0
0
4
30
128
46
29
7
2
0
1
41
128
65
128
16
0
0
7
9
19
88
22
2
0
0
73
62
1
2
9
38
23
14
16
14
15
10
40
128
78
0
0
2
22
16
128
116
18
0
18
3
2
19
30
9
0
5
128
57
0
2
56
84
18
29
3
0
2
1
57
128
128
14
4
3
0
0
33
78
61
10
33
9
0
0
8
1
0
42
108
5
0
4
37
52
1
0
7
27
2
0
6
35
9
0
5
109
46
0
0
38
81
11
0
27
92
10
3
0
23
28
1
0
42
75
19
26
0
4
79
35
0
0
109
109
18
5
53
53
4
12
29
103
98
36
82
33
9
8
16
13
26
98
55
9
6
24
10
8
0
46
80
1
0
0
109
14
2
56
53
2
12
109
31
22
23
27
70
28
93
97
13
41
17
14
74
106
34
2
1
2
1
31
9
0
0
0
3
0
40
108
7
0
8
31
0
8
79
28
0
12
94
39
4
72
48
0
1
43
36
0
10
4
11
4
6
13
32
26
134
87
16
0
0
0
5
43
69
71
78
9
0
0
3
18
2
1
70
110
54
0
0
6
28
21
9
49
24
5
6
10
134
60
1
0
0
0
1
33
117
33
0
0
0
0
4
30
18
11
1
42
63
0
1
9
23
16
49
100
44
0
0
2
134
80
42
5
1
0
1
52
49
20
20
0
0
0
33
109
18
8
4
13
39
0
19
60
0
18
134
69
5
0
5
1
11
101
134
10
0
0
3
2
4
25
134
11
0
0
5
11
15
42
63
13
6
0
2
12
8
1
0
48
33
2
5
5
27
28
1
0
0
3
16
28
25
127
29
0
0
0
0
7
6
126
41
0
5
5
1
0
9
2
0
50
127
6
4
3
119
127
0
0
7
5
7
19
38
127
5
0
2
6
6
5
1
31
3
1
29
17
17
1
16
1
0
75
127
1
0
5
127
24
0
10
21
0
1
103
67
15
0
0
14
27
29
67
0
0
0
0
13
68
63
2
2
0
0
58
127
0
0
1
47
3
3
18
43
1
14
104
14
0
0
0
2
36
111
109
0
0
0
1
11
104
79
3
0
52
25
3
20
129
111
1
121
129
8
0
27
64
3
0
129
45
0
4
7
0
0
2
16
0
1
119
129
0
0
0
0
121
129
2
0
13
22
0
64
129
31
0
0
1
0
1
129
11
0
0
3
0
0
13
28
0
0
48
129
0
0
3
1
15
26
1
0
0
0
0
52
8
4
0
0
0
0
0
129
1
0
0
0
0
0
8
37
0
1
56
75
1
0
4
0
1
4
4
0
0
0
0
35
5
2
0
0
0
0
0
129
2
0
0
0
0
0
8
31
0
0
11
35
21
1
7
0
0
0
50
119
26
0
0
57
6
2
19
53
14
12
47
99
19
2
0
0
0
37
119
28
7
3
3
26
10
17
45
0
0
0
28
119
84
17
3
32
5
3
77
117
15
19
47
119
47
2
5
2
0
5
77
87
44
12
19
11
13
8
15
4
10
66
64
98
53
19
9
14
57
104
72
34
3
6
8
119
107
46
14
6
1
10
31
53
8
4
12
23
63
58
35
1
3
49
89
74
6
0
0
20
72
66
32
12
8
0
1
15
30
31
55
29
21
11
11
37
16
12
35
44
13
23
33
63
4
1
100
150
0
0
2
160
6
0
6
3
0
0
27
58
2
1
16
28
11
1
8
1
5
8
10
7
2
0
0
39
11
0
129
160
0
0
0
160
24
0
19
18
0
0
15
85
6
12
20
12
13
1
8
3
25
14
5
2
2
1
2
15
17
9
88
160
0
0
0
160
107
12
24
24
0
0
15
73
16
8
9
8
5
5
23
5
4
4
6
8
6
5
9
3
21
19
53
46
3
0
0
45
144
23
13
2
0
0
3
11
32
14
5
8
2
1
4
0
0
2
6
30
14
4
1
9
0
0
0
2
53
101
31
79
1
0
0
0
8
39
75
135
46
20
1
0
0
1
38
6
61
35
2
0
0
0
0
106
13
0
0
0
24
22
30
125
11
2
0
1
14
13
65
135
21
2
0
0
0
2
94
38
9
8
7
2
0
0
5
122
12
0
0
0
0
0
25
120
117
42
1
1
6
1
21
135
127
15
0
0
0
0
10
46
12
2
2
0
0
0
4
58
36
14
0
0
0
0
19
135
76
15
0
0
0
0
45
129
98
5
0
0
0
0
7
15
16
1
0
4
4
0
0
5
1
0
2
6
12
89
73
70
5
0
1
1
1
58
137
31
0
0
1
0
0
15
127
1
0
0
4
8
6
7
12
5
1
0
1
9
5
54
97
75
6
0
0
0
0
120
137
95
27
0
0
0
0
106
137
49
21
0
1
19
5
16
56
7
6
2
0
15
4
14
33
99
21
0
0
0
0
36
49
137
93
0
0
0
0
8
36
82
51
0
1
29
3
0
4
7
23
9
1
3
0
0
3
95
77
7
0
0
0
0
3
137
102
2
0
0
0
0
22
45
17
0
0
35
5
0
15
6
2
1
2
0
37
51
1
100
17
0
0
0
9
8
13
104
51
18
1
1
8
4
23
122
33
3
0
0
0
0
17
4
10
23
19
0
0
0
0
103
40
16
0
0
0
0
23
122
117
28
0
0
0
0
28
98
89
6
0
0
0
0
1
0
64
122
13
0
0
0
0
15
122
122
1
0
0
0
1
122
122
110
5
0
0
0
12
76
33
2
0
0
2
4
8
3
84
122
21
0
0
0
0
3
91
119
1
0
2
2
0
4
38
74
5
0
20
13
0
6
12
4
0
0
27
42
5
2
0
0
2
34
132
70
8
30
0
0
0
0
5
47
72
16
0
0
0
0
0
3
19
0
0
0
0
0
0
0
0
1
0
32
132
37
36
11
7
50
10
36
81
5
4
52
132
132
43
4
2
0
0
8
132
51
5
0
0
0
0
0
10
0
0
35
85
2
2
1
2
30
45
112
132
0
0
1
10
132
132
31
11
0
0
15
113
51
7
0
0
0
18
77
74
0
0
13
15
1
0
1
2
2
2
15
20
1
2
5
3
13
4
11
7
3
7
34
90
1
0
2
1
0
23
101
89
4
0
5
20
89
22
3
3
40
19
33
25
12
10
1
2
139
52
11
6
28
0
0
29
77
25
9
29
139
4
0
4
13
1
4
18
93
28
13
18
45
12
20
14
5
9
31
36
139
39
3
0
41
16
5
23
120
19
0
0
139
44
2
3
9
4
11
56
66
26
12
1
53
17
17
24
6
11
19
17
139
13
0
0
13
67
56
72
139
23
0
0
42
102
27
16
1
7
40
13
24
43
19
0
4
8
89
16
1
11
27
12
24
11
33
19
6
25
50
38
139
46
0
2
3
21
11
4
41
6
2
2
0
2
11
4
181
70
0
0
0
0
1
2
168
39
1
0
0
0
0
5
13
12
6
15
18
10
2
3
66
9
15
4
3
0
0
0
181
35
1
0
0
0
0
3
155
17
0
0
0
1
7
25
5
1
0
2
13
49
21
15
32
43
98
29
0
0
0
0
181
39
23
11
0
0
0
20
145
10
2
2
0
0
0
20
2
3
2
22
26
9
1
1
25
26
14
12
2
16
37
16
181
45
7
8
1
7
8
13
107
27
0
0
1
4
1
3
2
0
0
6
16
13
1
0
32
1
0
0
5
5
36
98
32
9
0
0
9
51
132
69
62
95
78
26
25
32
12
8
1
11
60
132
9
0
0
0
0
0
0
2
2
7
14
13
116
6
0
0
0
1
33
57
132
38
7
13
2
0
3
73
17
4
5
132
49
9
4
8
0
5
2
56
8
2
2
0
115
84
5
0
0
0
1
5
132
73
0
2
5
7
7
25
13
1
3
15
35
67
27
6
7
19
8
132
36
0
0
0
68
129
27
11
0
0
0
2
106
29
15
16
5
1
0
69
12
2
37
28
12
9
2
20
150
0
0
0
0
0
1
69
21
2
0
0
0
0
0
2
18
7
0
0
0
0
0
1
9
1
0
0
29
33
0
2
150
9
4
0
0
0
0
80
41
5
3
0
0
0
0
6
23
2
0
0
2
5
0
5
2
0
0
0
105
150
0
1
150
29
26
24
5
0
0
31
65
9
6
0
0
0
0
9
6
7
3
0
32
29
0
0
0
0
0
0
150
150
0
0
140
1
2
36
43
0
0
24
69
1
1
0
0
1
1
27
0
1
1
0
91
70
1
2
0
0
0
3
150
150
0
0
33
39
21
10
4
1
1
9
17
41
21
2
3
7
6
8
81
138
12
1
1
2
0
2
41
109
13
0
0
0
0
0
1
32
28
56
27
22
3
0
44
33
9
0
5
67
24
47
138
99
4
0
0
2
9
133
34
40
8
0
0
0
15
33
0
0
0
13
96
82
15
0
78
81
1
12
20
60
14
11
138
138
5
1
0
1
4
40
23
21
9
3
0
1
10
13
24
9
0
3
22
77
40
10
116
138
2
4
3
2
9
8
94
138
37
0
0
0
0
0
5
33
19
1
0
0
0
0
17
17
24
11
38
15
6
33
20
7
0
0
76
53
7
31
141
2
0
0
32
29
5
35
41
3
2
4
2
2
4
8
26
1
0
0
102
58
21
38
43
0
0
0
34
152
52
48
152
21
0
0
14
40
10
20
44
10
7
5
4
2
3
3
1
0
0
0
30
152
97
8
96
4
0
0
0
103
114
25
152
36
0
0
0
8
5
13
48
20
17
10
1
0
0
2
0
0
2
2
12
53
15
0
137
3
1
0
0
2
14
13
152
8
0
0
0
0
0
18
57
6
0
1
1
3
3
13
157
34
0
0
0
0
0
0
142
16
0
2
1
0
0
0
0
0
0
13
8
0
0
0
0
0
0
6
7
0
0
0
157
69
0
0
0
0
0
2
146
25
0
4
3
0
0
0
0
0
0
6
14
1
0
0
0
0
0
5
15
0
0
0
157
10
0
0
0
0
0
132
139
6
1
9
3
0
0
72
0
0
0
21
16
0
0
1
0
0
0
11
10
0
0
0
148
0
0
0
0
0
0
157
147
0
0
1
1
0
0
157
9
0
0
12
11
4
0
18
0
0
0
7
9
13
4
0
23
26
38
7
3
8
38
69
1
6
48
15
7
20
31
15
70
69
31
0
0
0
5
21
88
72
1
0
0
1
0
6
6
2
0
0
0
5
100
123
13
12
9
0
0
28
123
76
123
20
2
0
0
0
31
123
122
4
0
0
0
0
0
40
60
70
12
0
0
5
12
32
53
123
86
0
0
2
34
29
123
92
30
0
0
0
6
22
120
7
0
0
0
0
0
27
27
45
123
32
1
0
1
4
51
26
20
16
1
0
34
39
123
24
2
0
0
0
7
19
86
20
0
0
0
0
0
1
1
13
6
26
24
0
0
0
87
117
7
7
5
0
1
12
86
107
3
5
90
17
0
6
0
0
1
26
117
15
0
0
20
19
5
23
31
0
0
0
117
117
3
2
4
7
4
21
44
49
3
1
117
104
6
8
0
0
0
0
117
68
0
0
14
4
3
34
35
0
1
4
104
4
0
1
8
19
102
117
11
0
0
0
54
99
117
65
0
0
0
0
85
90
5
1
0
0
0
33
50
1
0
0
5
0
0
15
86
25
45
23
32
0
0
0
9
26
59
94
0
0
0
0
21
58
10
6
8
12
1
0
3
67
6
0
0
3
5
1
5
115
115
1
10
1
7
2
2
18
115
40
46
4
0
0
0
2
15
32
7
1
0
0
8
115
21
3
71
91
57
11
5
115
43
24
53
52
98
79
13
12
46
34
106
43
5
4
1
2
3
16
31
29
30
5
7
107
41
9
81
34
78
31
3
15
58
106
83
57
24
22
13
31
88
42
76
35
3
3
0
0
0
3
115
85
19
4
1
0
6
4
20
32
108
63
5
4
3
3
40
84
47
14
1
1
4
3
27
18
0
0
0
0
0
7
36
15
90
19
5
1
3
32
18
7
11
9
6
1
62
110
5
2
8
2
0
0
76
110
7
0
7
6
0
1
20
53
3
5
92
52
110
14
2
1
63
110
75
37
64
6
13
26
42
24
66
94
59
8
30
108
110
1
0
2
6
1
10
110
5
2
33
51
90
14
6
2
99
45
81
41
36
14
11
52
31
34
79
47
103
49
12
21
102
54
31
3
9
0
1
27
0
3
42
21
1
0
0
0
1
20
100
15
1
0
0
0
0
15
99
17
5
4
1
1
4
28
47
1
0
0
5
5
0
0
2
3
9
29
52
3
4
5
2
2
1
14
104
29
2
1
0
0
1
10
95
21
0
0
0
0
0
5
33
21
8
1
2
26
114
46
20
2
103
64
11
17
38
33
67
51
30
19
12
41
96
43
86
47
69
16
3
2
5
3
39
66
5
1
10
111
114
0
0
3
58
10
19
114
43
25
68
94
74
16
7
21
62
111
79
36
114
36
4
1
3
3
54
44
0
0
12
61
5
0
10
9
0
0
41
114
7
2
7
2
16
2
28
114
30
8
19
16
12
1
1
8
20
10
114
42
1
6
23
34
23
19
8
1
0
4
21
93
116
82
4
0
23
73
56
9
18
15
0
2
97
80
17
0
0
0
0
15
8
8
16
25
37
42
29
45
10
5
12
78
116
116
26
18
116
49
48
8
13
25
17
58
67
28
31
3
7
5
8
29
3
3
23
30
108
44
10
12
18
20
63
52
116
116
7
5
116
49
22
12
11
12
30
52
17
2
3
8
32
52
61
33
0
1
36
54
77
14
0
0
0
2
100
87
75
59
0
0
11
4
14
20
32
57
39
24
48
17
19
19
8
14
29
35
56
50
21
28
5
1
3
26
95
16
0
0
1
34
89
53
74
1
0
0
0
29
90
121
14
0
1
1
1
7
12
26
22
51
54
36
17
4
7
7
22
12
27
78
91
44
47
23
121
40
12
7
9
16
27
80
52
26
51
17
5
10
7
18
41
43
49
28
10
2
3
17
15
14
27
121
87
32
7
7
121
39
23
32
12
27
40
119
53
13
8
4
4
24
71
121
4
6
21
77
40
7
4
2
1
0
1
44
82
81
12
0
55
3
1
5
28
63
20
30
121
39
5
0
0
0
8
54
11
61
56
22
30
4
20
47
16
14
53
54
7
0
54
126
83
0
0
4
1
0
29
126
9
0
0
2
2
8
15
12
126
100
50
24
36
13
8
38
40
25
50
113
126
58
10
30
126
22
2
9
30
3
1
103
35
1
0
0
1
3
16
31
38
26
126
35
5
9
8
29
9
34
126
61
60
49
10
10
96
122
104
7
8
1
0
8
32
29
12
0
0
0
3
11
0
9
55
7
2
1
0
0
0
5
71
17
5
9
3
3
2
18
61
3
0
1
9
12
4
23
23
1
0
0
3
8
0
0
6
11
4
19
16
0
0
2
12
11
1
23
52
1
6
6
2
1
0
9
84
12
1
0
0
0
0
20
72
5
0
0
1
9
30
35
15
0
8
0
0
10
89
120
99
5
76
44
11
13
11
40
120
42
9
10
11
45
55
35
113
26
1
3
18
32
26
1
0
0
22
1
3
120
120
18
2
7
120
35
9
41
41
23
54
120
32
8
7
36
118
113
58
27
2
10
12
7
5
0
0
1
0
1
33
120
64
0
0
2
2
0
93
120
15
7
37
37
12
1
49
73
8
48
43
15
1
1
0
0
0
0
3
3
17
3
0
0
0
0
0
6
33
0
0
8
153
1
0
5
43
1
0
20
188
1
0
0
3
7
6
1
0
0
0
0
15
3
2
2
1
0
2
5
56
1
0
11
173
0
0
5
55
0
0
24
188
0
0
0
6
3
2
2
0
0
0
8
12
4
3
10
3
0
0
2
60
5
0
4
166
3
0
1
52
0
0
8
188
7
0
1
4
5
1
0
0
0
0
2
7
4
0
0
0
0
0
3
32
1
0
3
128
5
0
4
38
0
0
12
188
10
0
2
5
0
0
33
61
8
20
42
55
57
8
2
7
19
15
32
39
71
6
4
53
29
2
0
0
0
0
25
122
22
0
0
21
5
0
81
122
0
0
4
122
106
14
15
14
4
3
26
25
37
18
37
122
45
4
5
0
2
1
25
112
12
0
0
8
1
0
50
122
10
3
6
100
9
0
4
38
26
73
122
20
8
1
4
70
89
71
55
6
13
4
28
72
4
0
0
0
0
0
6
122
27
1
0
29
1
0
4
93
23
40
90
114
14
0
0
0
2
18
67
23
18
6
32
30
0
0
0
85
14
0
0
6
29
19
92
6
2
3
2
34
77
11
6
0
0
0
0
0
0
0
0
0
0
0
0
0
0
0
0
77
2
0
0
14
64
84
123
130
103
26
4
25
58
49
39
14
33
7
0
0
2
3
3
0
0
0
0
0
0
0
0
113
10
0
0
31
40
25
130
130
56
0
0
9
29
39
88
37
11
0
0
4
35
40
43
0
0
0
0
0
0
0
0
112
36
14
16
5
2
14
92
130
16
0
0
1
66
120
92
61
2
2
1
1
34
75
130
1
0
3
1
0
5
6
4
0
2
32
10
7
3
2
0
52
14
16
43
7
4
9
19
111
32
18
5
2
11
120
120
1
2
38
15
2
43
120
16
0
0
0
2
23
63
17
2
12
1
0
2
3
119
92
22
89
9
7
34
15
23
94
78
10
1
5
59
30
30
106
25
0
2
4
0
2
120
45
0
52
36
5
0
0
111
39
12
120
33
0
3
19
39
45
67
6
3
5
11
51
120
22
5
13
59
79
7
2
35
13
2
8
37
104
33
4
7
4
4
9
10
69
31
3
19
55
30
9
69
46
12
6
40
24
6
25
12
2
5
58
76
19
11
75
0
0
9
67
39
1
25
116
1
0
0
0
0
1
60
11
9
1
0
3
7
11
20
14
37
14
10
36
83
14
2
53
25
45
101
20
5
1
14
116
24
9
8
0
0
1
47
19
9
0
0
4
12
13
11
94
52
14
16
31
20
2
55
29
36
106
116
1
8
19
54
78
100
94
29
2
10
14
5
10
29
94
78
16
25
23
1
72
1
0
2
15
22
12
67
49
28
15
5
1
20
52
55
116
116
26
4
2
17
25
6
30
70
79
80
114
64
0
0
5
2
0
3
21
7
0
0
11
0
0
0
123
51
2
15
101
2
0
0
15
12
2
72
89
17
0
0
9
12
4
21
4
1
0
3
35
22
54
7
15
2
0
1
123
81
10
17
123
13
0
0
28
15
2
85
123
13
1
2
34
26
2
23
1
4
7
11
19
31
123
21
13
11
3
8
110
63
96
17
123
50
3
3
15
2
20
89
113
47
17
41
25
12
3
44
4
11
28
19
41
29
22
11
0
7
38
21
33
16
37
6
56
1
1
6
12
13
30
123
97
8
4
9
13
41
50
123
5
23
45
126
63
4
2
2
19
18
39
72
10
1
7
13
41
22
43
1
0
15
31
22
36
25
30
10
8
13
13
22
13
9
13
116
122
31
16
31
17
4
39
103
126
21
2
7
126
58
93
6
11
7
2
18
17
56
126
5
0
2
4
6
46
20
3
42
96
9
4
13
22
6
2
126
126
5
0
1
126
24
6
29
16
1
0
9
57
13
16
2
4
0
0
10
34
18
4
22
68
8
1
3
3
2
2
98
86
2
0
0
126
18
4
42
18
0
0
4
46
8
0
1
2
0
0
5
7
12
5
2
15
43
29
40
80
118
7
1
6
14
1
10
59
76
4
2
9
40
11
2
4
23
9
6
15
69
23
2
40
3
4
11
15
22
19
34
118
81
11
5
4
5
11
58
44
42
16
35
110
62
20
10
80
65
25
23
17
19
4
31
86
35
3
0
4
24
26
12
118
59
16
21
20
20
78
73
58
5
0
10
44
88
118
47
118
9
3
3
4
5
13
51
53
95
118
11
4
1
0
3
54
40
35
42
66
46
24
13
83
49
1
9
22
17
11
11
106
62
11
1
0
0
1
3
25
4
1
0
0
0
14
111
9
5
2
0
64
67
7
23
43
10
2
0
78
86
9
68
44
4
1
0
15
29
15
90
23
13
23
12
15
5
29
97
16
1
0
0
30
117
91
53
117
104
34
3
28
74
10
16
26
30
40
17
28
50
12
27
0
0
7
63
77
6
6
1
41
3
0
15
97
51
21
14
117
31
5
5
12
60
52
87
8
4
5
8
23
117
105
7
0
0
2
39
112
12
1
0
14
11
3
20
106
13
0
10
43
38
14
25
43
29
23
51
1
2
4
29
80
60
19
1
1
1
0
2
27
18
30
10
17
7
0
1
56
87
59
24
54
99
21
0
1
19
45
58
1
85
121
7
1
21
9
0
5
46
25
48
32
3
0
0
70
19
18
128
91
17
1
7
128
118
12
9
1
0
0
47
40
52
37
16
0
0
0
5
0
67
57
50
24
7
1
0
13
16
34
128
51
21
1
2
128
60
25
29
5
4
1
31
87
20
5
1
0
10
12
10
0
1
12
38
92
38
3
0
1
0
0
8
75
82
5
3
65
2
0
1
7
26
65
89
27
4
2
0
0
52
128
42
12
0
7
15
10
1
8
85
21
13
3
0
0
0
32
107
4
9
18
11
11
45
40
45
0
5
53
21
18
118
29
2
23
22
52
124
26
0
1
18
124
116
35
23
3
0
0
22
23
52
124
37
6
4
1
4
0
23
124
57
8
4
0
0
17
12
11
112
114
52
10
5
124
27
10
30
40
8
0
86
88
12
36
17
6
2
0
59
0
1
25
19
16
22
1
0
16
9
62
53
22
26
6
6
69
12
105
84
10
3
0
43
96
5
11
9
12
8
0
85
2
1
2
5
23
48
3
3
8
9
11
7
65
30
1
6
6
15
43
78
27
38
18
4
8
7
23
71
81
37
14
4
30
71
25
1
3
11
15
5
32
3
0
1
67
62
9
20
27
4
3
25
96
120
55
15
120
68
96
16
38
47
33
26
35
77
120
16
7
7
4
1
40
73
20
9
46
26
4
13
21
38
85
120
66
22
3
7
120
73
32
65
14
11
5
29
50
12
25
7
33
97
37
11
29
40
7
3
15
7
33
37
9
18
19
47
41
106
79
20
67
27
6
20
25
55
21
59
21
9
17
35
53
29
8
20
15
3
0
0
0
0
0
3
22
1
0
0
0
0
2
7
31
0
0
41
183
0
0
5
25
0
0
59
183
0
0
4
10
7
0
0
0
0
0
2
25
1
0
1
0
0
4
8
59
0
0
31
183
0
0
6
18
0
0
68
183
0
0
5
13
6
0
1
0
0
0
2
21
11
2
2
0
0
0
0
59
6
0
22
143
0
0
2
16
0
0
74
183
0
0
1
5
7
1
0
1
0
0
0
12
2
0
0
0
0
0
7
34
1
0
9
80
1
0
16
8
0
0
51
183
0
0
1
7
0
0
0
0
0
29
17
19
3
1
2
37
24
14
34
112
22
0
2
17
11
17
137
44
3
5
8
1
19
119
95
16
5
7
2
0
0
21
20
40
5
0
2
25
49
9
19
137
41
0
1
20
41
11
15
26
5
0
0
33
111
87
15
4
9
46
15
1
0
55
24
22
9
15
15
23
13
55
18
96
7
3
3
14
44
63
57
2
0
2
8
30
73
31
7
0
0
137
92
0
0
17
7
0
0
137
117
0
0
35
10
0
0
137
87
0
2
52
24
0
0
109
46
1
2
45
15
3
11
27
36
59
2
1
2
58
97
67
16
7
0
0
0
131
79
27
45
6
7
13
8
19
12
20
167
57
61
19
2
9
8
5
3
5
3
2
4
84
16
13
1
3
6
6
11
167
80
23
21
0
0
0
6
28
28
46
167
42
0
0
0
6
5
1
2
2
1
2
1
99
1
0
2
11
5
3
7
167
5
0
0
0
0
0
20
55
3
2
55
86
9
2
6
1
1
0
2
8
9
6
1
75
0
0
0
1
7
10
6
167
5
0
0
0
2
2
16
35
1
0
9
53
84
10
6
31
24
1
2
3
18
76
57
65
1
0
2
4
31
31
56
51
0
0
6
68
94
15
37
3
0
0
15
63
89
27
7
54
41
13
27
3
4
31
33
56
27
7
45
31
10
30
68
95
17
10
68
52
19
23
81
9
4
5
113
105
8
0
1
55
21
6
11
14
45
51
98
83
28
12
87
61
7
9
101
113
45
12
44
46
5
5
33
13
8
6
87
113
7
3
5
71
44
7
12
34
30
9
36
113
58
17
19
7
2
4
56
57
38
18
17
24
5
4
20
7
4
2
20
113
22
5
4
0
4
19
48
53
75
10
0
13
47
36
29
25
29
12
12
54
49
10
21
12
7
35
59
70
9
1
6
16
24
18
56
1
2
43
79
25
42
74
25
22
19
22
23
43
112
65
39
112
68
12
36
51
19
34
98
103
72
9
41
69
10
6
29
1
1
59
112
87
50
22
16
41
61
23
48
112
60
8
22
112
112
18
25
12
8
7
68
64
61
13
23
45
22
5
11
0
0
1
12
45
35
8
4
16
4
0
30
59
10
6
34
75
8
0
3
4
6
13
112
31
11
1
3
46
14
7
17
8
1
1
5
23
5
0
0
211
89
0
1
7
5
2
7
211
31
0
0
9
64
57
20
0
0
0
0
1
25
30
0
27
3
0
3
40
20
0
2
211
61
0
0
8
7
2
15
171
10
0
11
34
29
6
16
4
2
1
2
4
4
1
2
44
2
0
7
56
17
0
2
211
27
0
0
11
5
0
34
107
2
2
10
11
2
3
40
0
2
5
3
1
0
0
0
6
0
0
0
10
5
0
0
56
2
0
0
2
0
0
2
8
0
0
0
0
0
0
3
0
0
0
0
0
0
0
0
56
132
20
9
2
1
1
1
20
71
19
51
80
33
2
1
132
132
11
30
35
6
1
1
107
45
0
0
0
0
0
0
26
129
23
11
18
13
1
1
35
10
6
33
90
132
13
18
132
57
4
4
10
24
8
53
92
17
0
0
0
0
0
4
2
18
12
37
21
1
0
0
12
31
84
132
54
11
0
3
132
132
57
15
2
1
0
15
71
19
0
0
0
0
0
2
3
4
5
8
1
0
0
0
6
36
39
14
0
0
0
0
68
90
13
0
0
0
0
0
20
9
0
0
0
0
0
0
33
7
0
13
50
7
6
5
148
18
0
0
0
0
2
35
148
1
0
0
0
0
0
44
25
0
0
0
0
0
0
3
26
64
11
64
61
0
0
0
148
115
33
4
0
0
0
4
148
10
3
0
0
0
0
46
45
0
0
0
0
0
0
10
34
127
26
61
46
0
0
0
55
142
82
68
4
0
0
0
148
24
14
26
2
0
0
30
72
1
0
0
0
0
0
8
45
89
16
19
4
0
1
1
33
59
12
40
35
13
1
1
145
37
5
20
16
5
1
10
54
4
0
0
0
0
0
1
84
0
0
0
0
0
0
14
128
0
0
0
2
14
23
81
3
0
0
7
80
90
25
11
0
0
3
44
98
18
0
0
92
18
0
0
0
0
0
9
128
17
2
6
5
4
6
37
10
3
9
37
54
25
5
2
0
4
34
45
21
14
2
0
48
31
1
0
0
0
0
0
128
46
4
3
5
0
0
4
23
9
17
56
51
4
0
1
0
1
4
16
59
107
16
0
13
37
100
0
0
0
0
0
46
128
128
1
0
0
0
0
6
48
128
127
18
0
0
0
0
0
67
128
128
53
1
0
6
0
15
89
18
3
1
13
112
11
7
13
0
0
0
71
94
47
17
0
0
0
0
127
29
8
11
0
0
0
0
127
0
43
86
115
5
1
0
0
124
28
77
127
0
0
0
11
127
88
57
6
0
0
0
28
48
27
86
42
2
0
0
45
0
73
43
41
1
0
0
0
18
18
89
127
1
0
0
1
127
49
44
17
0
0
0
38
64
5
13
36
31
2
1
35
0
8
7
13
1
0
25
32
0
6
31
16
3
21
8
4
80
7
14
5
3
25
11
31
87
9
4
7
6
0
0
22
0
0
18
18
7
11
66
3
11
0
7
78
92
64
117
19
122
2
0
9
14
10
97
122
19
1
0
0
50
70
113
43
0
0
0
0
2
18
110
7
20
4
1
8
35
122
90
12
122
12
1
1
7
37
16
75
42
4
0
3
85
50
16
22
0
0
9
15
4
5
21
10
20
33
20
42
25
35
25
21
122
79
10
3
1
4
7
55
33
14
5
25
50
16
9
17
0
2
15
69
30
1
2
1
9
7
11
58
47
11
27
45
115
12
3
1
0
0
11
105
77
6
1
18
67
12
0
21
39
51
74
1
0
0
1
71
26
11
5
2
4
4
33
130
40
10
12
5
0
0
7
110
5
15
9
0
0
0
2
8
3
32
38
5
11
6
4
0
27
12
4
3
93
53
19
67
130
11
0
0
5
7
9
130
37
4
0
0
0
0
3
22
2
3
4
0
4
73
130
6
78
92
5
2
55
65
76
24
130
130
2
1
4
1
0
15
48
7
0
0
0
0
0
22
46
33
0
0
0
27
130
18
130
130
0
0
0
2
26
21
66
84
2
2
1
0
0
2
23
2
1
0
0
0
1
17
15
5
3
2
15
9
16
28
60
12
5
3
5
43
46
132
20
9
30
16
14
121
66
75
63
5
5
4
5
0
7
115
26
10
0
4
52
24
1
2
132
132
48
14
3
3
2
24
29
54
132
130
9
4
1
7
72
31
83
28
0
0
0
31
32
14
12
6
25
14
0
4
132
61
6
4
1
0
2
105
72
12
27
62
30
19
15
47
3
9
46
27
5
3
2
0
2
89
31
8
5
0
0
0
82
132
9
0
2
7
5
15
29
11
0
0
3
33
64
26
3
0
0
0
0
3
22
29
26
39
2
7
23
28
12
4
144
129
1
1
2
1
5
19
119
31
0
0
18
144
84
45
0
0
0
0
85
144
11
0
83
34
2
1
0
2
6
22
144
48
2
6
7
3
4
23
34
9
2
47
100
99
35
13
0
0
0
2
26
51
3
0
112
4
1
2
8
15
11
32
144
19
0
4
2
0
0
51
33
3
1
38
29
0
0
20
0
0
0
1
2
0
0
0
144
21
0
0
3
23
13
22
144
23
0
0
0
0
0
12
11
1
0
0
0
0
0
3
0
0
0
0
0
0
0
0
64
14
0
0
79
23
0
0
85
17
2
8
29
23
23
17
127
3
0
1
4
5
17
62
65
0
0
0
2
12
12
23
110
31
0
0
87
16
0
0
89
24
2
11
102
20
1
7
127
5
0
1
13
7
1
35
87
0
0
0
79
37
12
16
127
34
0
1
68
12
0
0
88
20
4
18
127
19
0
2
127
34
3
3
16
4
0
5
89
5
0
21
127
10
0
1
118
38
1
4
32
4
0
0
36
32
55
54
30
0
0
0
96
78
33
7
2
0
0
0
66
7
3
42
47
0
0
1
112
5
1
4
67
1
0
0
75
4
2
20
69
8
1
17
122
0
0
0
5
2
1
69
34
0
0
10
117
29
18
20
122
2
0
4
88
0
0
0
106
5
3
28
122
4
0
10
122
11
2
4
16
1
0
39
75
0
0
73
122
4
1
12
122
8
0
7
73
1
0
1
91
27
59
63
41
0
0
1
118
88
46
12
4
0
0
8
86
6
5
46
19
0
0
17
117
9
0
13
43
0
0
0
91
8
12
1
0
0
0
2
19
11
8
0
0
0
0
9
66
1
1
0
0
0
0
25
108
103
23
2
0
0
0
34
150
120
0
0
0
0
0
99
24
23
2
2
1
2
2
18
13
6
1
5
5
3
1
0
99
27
12
17
16
0
0
35
150
13
0
2
4
0
0
150
90
3
1
2
1
1
3
21
17
4
0
0
0
1
2
6
66
72
14
23
28
0
0
0
150
148
3
2
3
0
0
3
99
25
2
3
3
3
0
1
12
0
1
2
5
6
2
8
49
129
28
13
2
0
0
0
96
150
5
0
0
0
2
4
21
17
0
0
1
25
15
4
18
4
0
0
2
15
4
4
14
93
12
0
0
5
0
3
39
127
24
0
0
0
0
9
127
69
2
0
0
0
0
113
75
17
0
0
0
0
0
86
41
26
1
0
0
0
11
40
120
23
9
4
0
0
0
38
86
9
13
15
8
0
0
125
127
0
0
0
0
0
0
127
43
39
19
1
0
1
14
25
127
40
2
4
3
0
0
9
78
23
4
25
26
0
0
6
127
24
0
0
0
0
0
36
15
26
44
19
16
3
2
4
127
41
5
6
3
1
0
10
40
80
27
24
5
0
0
0
123
118
2
0
0
0
0
1
10
8
4
6
0
5
56
34
134
67
2
3
1
0
9
18
86
43
6
11
56
12
0
0
0
0
0
3
49
9
0
0
35
31
9
3
2
5
8
23
134
82
0
0
3
6
10
31
84
21
0
7
81
60
29
12
0
0
0
2
55
11
4
3
42
28
4
0
6
23
9
25
134
25
8
7
4
31
96
104
70
1
0
1
7
80
134
99
38
0
0
0
31
9
6
34
50
134
34
4
0
4
0
0
15
65
75
134
21
11
13
5
123
32
28
56
5
9
17
28
81
7
0
0
26
5
0
9
172
5
1
2
0
0
0
166
26
6
7
9
7
4
4
14
69
0
0
1
2
2
3
71
17
0
0
6
0
0
0
22
172
172
1
0
0
4
5
35
41
16
3
7
34
83
12
11
109
5
0
0
8
19
6
60
25
0
0
0
0
0
0
14
172
144
0
0
0
17
26
25
38
17
0
0
2
97
33
9
129
24
0
0
0
7
2
13
11
1
0
0
0
0
0
2
106
17
0
0
0
6
11
7
33
81
2
1
1
8
4
0
23
31
3
3
8
1
1
4
0
0
0
0
0
0
0
0
7
1
3
23
49
4
6
19
16
10
1
27
71
1
0
0
22
32
25
149
76
0
0
0
0
0
5
186
186
24
11
2
1
1
5
23
17
1
2
5
35
9
7
102
50
0
0
0
126
41
15
65
28
0
1
13
2
2
47
186
139
1
1
1
0
0
3
12
1
0
0
0
7
2
32
141
16
0
0
0
55
11
40
49
4
2
5
32
4
3
20
78
8
9
11
8
0
0
0
0
0
0
0
0
0
0
25
39
0
0
0
0
1
2
80
83
0
0
1
0
2
3
29
50
5
0
0
1
3
0
0
12
110
19
0
2
102
0
0
1
50
13
1
33
43
0
0
0
36
24
4
29
65
2
0
0
4
2
1
32
4
1
1
14
122
27
0
3
122
3
0
1
87
24
0
36
76
0
0
0
90
33
5
34
112
0
0
0
5
3
1
48
7
3
1
14
122
46
1
0
122
42
0
5
101
9
0
1
83
5
0
5
122
27
0
22
122
0
0
0
6
4
2
50
8
6
0
11
119
32
1
1
108
43
1
8
54
7
1
11
55
4
0
7
122
8
0
6
122
5
0
1
9
1
0
16
27
3
0
12
114
7
0
6
114
2
0
8
61
6
1
28
80
5
1
19
114
3
0
5
114
11
1
2
2
0
0
6
24
5
0
16
114
5
0
2
114
12
1
13
68
3
0
15
75
12
4
37
104
19
0
8
114
17
2
4
6
5
1
16
14
5
2
36
114
1
0
0
114
10
0
14
84
9
0
10
105
12
0
0
114
46
1
9
114
57
5
6
7
3
1
11
10
3
1
34
78
0
0
0
73
23
2
25
69
1
0
0
96
14
0
15
110
5
0
2
114
11
0
0
6
5
3
16
6
1
1
28
114
4
0
3
114
0
0
8
79
6
0
36
59
0
0
3
78
13
2
52
57
0
0
2
22
2
1
47
7
3
2
28
114
33
3
4
114
22
0
21
105
3
0
4
80
3
0
34
114
3
0
31
107
2
0
2
17
3
2
56
8
5
1
34
114
17
3
6
101
13
0
20
79
6
4
49
56
1
0
41
114
4
1
26
114
2
0
7
29
3
0
48
4
2
0
19
90
9
2
3
87
1
0
19
101
4
2
38
67
4
1
50
98
1
0
22
114
4
1
16
34
0
0
24
8
5
1
0
53
37
1
2
61
12
1
1
30
29
4
12
41
16
1
6
125
15
0
1
125
37
3
3
22
2
0
0
25
1
0
0
125
38
2
8
125
12
0
2
62
24
5
22
78
13
0
4
125
23
0
2
125
23
1
2
14
1
0
8
29
10
0
5
125
10
0
1
125
14
0
5
73
7
1
19
75
19
3
23
125
15
1
5
125
35
2
2
6
1
0
2
15
3
0
5
125
11
0
0
125
25
0
3
51
8
0
2
54
15
1
17
86
35
1
4
108
25
2
2
3
4
1
6
4
4
0
9
109
22
1
3
91
31
0
5
54
11
1
19
56
4
0
3
125
15
0
5
125
7
0
1
13
2
0
8
6
0
0
3
125
24
2
3
125
8
1
7
76
13
3
30
73
6
1
27
125
7
0
8
125
6
0
3
30
9
0
13
11
0
0
12
125
13
0
2
125
11
0
3
83
8
0
7
63
19
5
29
125
6
0
3
125
30
2
9
22
0
0
1
13
0
0
1
125
27
3
4
125
6
0
1
51
13
0
9
33
22
3
14
60
11
1
2
57
33
1
2
7
5
1
0
14
5
1
26
112
1
0
1
139
2
0
8
73
1
2
21
46
2
1
9
23
35
18
8
14
3
0
7
47
42
3
5
43
15
2
26
139
3
0
7
139
28
3
12
114
0
0
6
61
15
13
64
37
6
1
4
20
6
8
78
53
10
1
12
89
5
0
18
139
5
1
22
139
9
0
9
116
1
0
26
84
9
4
37
20
1
1
23
4
10
15
76
32
1
1
2
88
4
1
22
97
5
2
25
139
14
3
23
76
1
0
8
97
21
5
11
17
16
1
9
2
1
1
17
38
37
10
2
9
40
67
22
4
5
4
6
30
3
17
65
14
2
12
29
142
5
1
3
1
0
3
27
79
22
2
1
0
0
0
5
1
56
121
35
18
5
0
0
47
5
25
122
142
16
0
3
142
5
0
5
21
2
0
10
89
2
0
0
0
0
0
31
3
9
9
2
17
140
37
0
45
7
2
8
141
142
8
1
142
12
0
0
16
5
0
13
64
0
0
0
0
1
0
33
0
0
0
3
12
77
58
2
18
3
3
15
28
38
3
5
142
3
0
1
2
1
0
82
48
0
0
2
3
0
0
27
3
0
0
5
124
17
1
1
124
6
0
4
85
9
1
17
68
8
1
25
124
4
0
7
124
9
0
5
32
5
0
10
6
0
0
13
124
18
3
8
124
10
0
3
111
13
0
8
73
21
5
35
124
7
0
4
124
38
4
11
20
0
0
0
10
2
2
4
124
26
5
7
124
4
0
0
97
18
1
14
57
25
2
8
57
20
2
7
63
40
1
2
10
19
5
2
6
3
5
7
124
7
0
1
124
2
0
2
73
3
0
16
51
11
0
1
8
4
1
8
33
8
0
4
40
19
4
3
75
7
2
60
86
0
0
16
128
4
2
27
17
0
0
33
117
25
10
51
23
0
0
5
106
9
10
128
57
0
0
14
50
14
5
70
77
2
0
6
128
23
3
11
11
3
0
10
120
2
1
15
39
15
3
16
128
7
15
43
0
0
0
18
43
8
1
9
49
11
1
18
118
18
0
4
23
23
2
9
105
0
0
7
51
76
24
63
128
6
0
0
0
0
2
59
42
1
0
1
9
2
1
30
73
2
1
10
23
2
1
14
86
3
2
52
85
7
2
21
128
13
1
3
1
0
0
37
0
21
19
8
21
112
100
8
124
124
6
1
30
56
5
0
124
41
0
25
31
0
0
1
4
4
17
124
124
0
0
0
0
74
124
3
0
10
23
1
76
124
33
0
0
2
1
1
124
15
0
6
16
0
0
14
14
3
5
103
124
0
0
1
0
13
35
1
0
0
0
0
58
14
5
0
0
0
0
1
124
1
0
2
2
0
0
14
25
1
4
69
73
26
0
3
0
1
14
7
0
0
0
0
29
12
10
1
0
0
0
0
124
5
0
0
0
0
0
11
19
0
0
16
121
36
0
6
16
2
0
0
2
2
30
89
27
3
2
3
4
0
67
94
80
83
113
23
14
0
3
44
4
80
90
15
12
0
0
3
26
29
13
3
3
1
4
15
83
22
49
17
2
2
19
57
132
43
14
1
4
0
1
88
18
3
4
5
52
10
0
3
29
132
111
1
0
1
1
6
20
115
132
13
1
6
2
4
132
132
57
1
11
3
2
18
12
6
0
0
70
23
0
0
55
71
33
0
0
6
42
22
14
15
32
1
8
61
47
16
116
8
4
0
17
17
8
36
6
0
0
0
64
26
2
0
0
0
0
22
129
46
3
0
3
0
1
40
128
40
6
4
3
3
2
55
47
0
0
1
7
5
1
17
53
8
3
2
1
0
0
0
129
129
7
1
95
6
1
5
112
95
13
22
20
4
2
34
93
3
0
1
0
0
1
16
73
18
2
1
3
2
4
10
129
74
1
1
129
45
13
12
114
22
0
11
27
6
1
5
90
31
1
2
7
3
2
21
119
7
0
1
5
8
6
8
129
56
0
2
17
60
23
10
57
26
0
0
23
13
1
1
59
53
2
2
20
15
2
10
122
7
0
0
86
3
0
3
31
16
2
20
89
44
1
4
22
12
1
1
81
10
0
0
28
68
21
21
139
30
1
4
1
2
3
14
102
3
0
1
9
4
2
36
104
17
1
6
34
7
1
7
139
11
1
31
132
32
9
20
139
38
1
1
1
0
1
17
84
12
1
2
1
0
3
29
86
1
0
2
17
2
3
50
121
62
13
35
82
3
1
11
139
108
5
1
1
0
0
5
57
10
3
2
4
2
3
33
32
0
0
1
4
4
3
66
80
18
4
3
2
0
4
61
139
20
1
0
0
0
3
75
0
8
24
8
0
38
158
7
4
5
15
1
0
38
158
22
1
0
0
55
59
126
116
2
6
3
37
158
98
28
1
2
24
5
0
0
0
4
108
25
99
12
0
0
0
1
59
40
17
5
5
15
10
9
14
4
0
8
54
118
13
2
0
0
62
12
0
0
0
0
1
32
98
18
0
0
0
0
0
35
24
17
4
1
2
1
1
28
4
38
13
5
15
85
8
2
45
1
0
0
0
0
2
43
44
0
0
0
0
0
1
73
25
2
0
0
5
9
5
59
3
2
0
0
133
158
17
7
21
24
4
1
0
1
2
3
4
6
0
1
21
52
19
2
8
10
3
5
55
39
15
5
28
18
2
1
1
0
0
2
8
4
1
2
23
17
5
8
9
0
0
0
87
145
55
12
136
12
0
0
5
59
60
63
35
11
2
1
2
2
0
4
9
7
0
1
74
48
4
9
72
4
0
0
145
145
8
12
145
53
0
0
7
21
5
17
34
9
0
1
18
10
1
2
12
4
0
0
126
84
1
1
128
3
0
0
145
139
3
13
145
27
0
0
6
3
0
7
16
5
0
1
35
8
0
1
4
0
1
135
96
0
0
4
135
5
7
135
60
0
0
57
135
2
1
5
5
1
0
95
5
10
8
9
8
1
0
2
10
0
0
79
73
1
2
15
84
13
6
135
135
0
0
15
135
23
4
17
4
0
0
86
27
6
7
9
6
1
1
13
16
2
1
21
19
0
0
8
13
27
29
135
84
0
0
0
135
135
28
29
3
0
0
12
27
23
6
9
15
1
0
5
2
1
2
19
4
1
0
0
2
4
6
24
31
4
1
2
58
24
5
5
6
3
2
39
20
3
1
5
11
1
0
10
4
3
0
0
0
22
57
18
37
27
3
0
0
1
10
41
4
49
34
5
1
2
1
0
0
20
96
8
2
11
6
0
57
0
0
0
0
37
121
83
143
52
10
0
0
0
11
96
43
121
74
3
0
0
0
1
0
21
73
14
0
0
0
0
143
40
1
0
0
4
8
34
143
115
3
0
0
0
0
52
123
26
11
11
1
0
0
3
0
0
7
22
1
0
0
0
143
95
17
0
0
0
0
7
143
143
2
0
0
0
0
0
45
34
1
2
3
4
0
0
0
0
2
8
3
2
0
0
10
0
0
16
132
0
0
0
123
14
0
5
73
0
0
4
68
11
0
6
22
2
0
22
4
12
17
12
35
9
10
17
15
0
0
14
132
0
0
2
132
3
0
6
105
0
0
1
96
1
0
4
12
0
0
8
6
0
0
45
88
10
11
29
12
1
0
11
132
1
0
4
132
1
0
5
116
1
2
19
81
4
0
0
1
0
13
17
6
2
6
62
45
0
13
8
5
4
0
11
132
8
1
0
25
0
0
3
124
23
51
88
11
0
0
0
0
0
132
77
13
4
4
5
1
3
114
58
40
1
13
101
18
10
21
16
159
2
0
4
1
1
5
41
58
2
0
5
24
5
0
3
9
4
0
1
23
9
1
3
34
5
5
159
156
0
0
0
159
14
1
21
21
0
0
12
87
5
2
12
32
8
0
3
11
11
13
8
12
2
0
0
16
4
1
112
159
0
0
1
159
22
2
40
43
0
0
10
91
6
5
12
17
5
0
7
2
16
21
4
2
0
0
0
4
4
2
49
112
0
0
1
159
61
9
33
39
0
0
2
64
13
5
7
4
1
0
4
2
7
3
1
2
4
8
4
0
0
0
6
68
45
1
0
59
17
0
3
5
17
4
4
123
123
33
10
0
0
3
13
3
13
44
125
22
9
4
2
0
0
64
98
48
4
0
0
102
19
51
55
2
1
0
6
125
41
8
7
0
0
0
51
21
10
34
64
3
0
0
7
0
1
72
125
51
0
0
0
18
37
125
80
4
0
0
1
125
100
29
4
0
0
0
21
50
9
1
4
3
0
0
8
0
0
87
125
10
0
0
0
0
11
125
118
15
0
0
0
23
51
73
20
4
0
0
0
20
6
4
5
5
0
0
1
30
3
4
6
28
25
52
113
97
4
0
0
0
0
46
143
36
1
0
0
0
0
3
56
0
0
0
0
0
0
0
0
74
6
3
35
139
20
10
25
143
61
1
1
1
0
3
63
81
26
5
18
7
3
2
22
0
0
1
1
0
0
0
0
34
32
58
61
92
2
0
0
143
58
26
2
0
0
3
106
133
28
7
8
1
0
6
99
11
10
3
1
0
0
0
0
5
35
42
50
27
1
0
2
43
121
66
3
2
0
0
17
143
54
9
1
2
0
0
54
60
31
3
0
0
0
0
28
22
8
4
15
10
2
0
7
119
60
13
4
1
4
20
75
10
18
28
86
106
49
26
18
20
35
18
27
44
5
1
3
23
1
1
10
16
26
2
6
126
109
20
2
0
2
8
43
24
55
108
126
26
15
11
9
16
6
85
126
13
4
8
8
23
3
47
33
10
9
0
3
126
30
17
6
0
0
0
88
88
18
38
39
0
0
0
51
11
8
59
126
39
0
0
2
1
4
105
85
9
0
0
0
99
66
77
15
0
0
0
25
109
27
2
1
0
0
0
29
25
1
0
26
36
0
0
10
0
0
1
7
19
130
14
2
38
17
7
38
25
111
14
1
130
130
1
1
0
7
4
6
29
71
0
0
1
21
3
2
0
0
0
4
9
100
49
58
57
9
4
26
19
41
33
22
130
20
0
1
2
4
5
64
36
4
0
0
8
26
9
22
24
22
0
0
0
19
19
33
54
130
61
6
0
10
21
12
130
52
28
12
5
4
23
59
32
2
0
0
10
122
71
32
53
55
52
2
0
0
0
2
112
81
39
17
10
9
27
40
5
6
16
27
70
71
58
23
0
0
1
1
7
96
83
9
0
0
2
5
22
56
44
26
73
25
5
7
10
29
18
39
111
9
1
0
0
6
17
104
8
0
0
0
55
111
18
10
34
10
0
0
9
23
19
17
111
111
36
10
2
5
13
26
39
33
31
42
54
46
62
46
1
0
2
1
27
111
60
7
26
88
98
5
1
1
0
3
104
88
74
34
24
14
37
56
5
2
4
25
83
111
77
15
12
6
5
1
18
39
7
4
3
93
111
2
1
9
9
9
0
44
60
38
111
96
5
1
0
8
8
15
102
47
6
0
16
37
15
0
0
2
1
2
15
11
0
3
8
0
10
8
140
9
0
0
0
0
1
56
140
7
0
2
3
0
0
73
17
7
2
43
53
0
0
5
10
7
0
10
16
2
4
13
133
7
0
0
0
0
4
100
140
21
0
0
0
0
0
102
34
7
1
34
41
0
0
3
8
1
6
29
37
8
2
4
140
54
0
0
0
0
1
16
140
119
0
0
0
0
0
10
25
10
0
15
32
3
0
0
5
8
18
101
42
0
0
0
140
122
2
9
3
0
0
0
140
120
0
0
1
0
0
0
4
3
0
5
17
2
0
0
0
0
0
0
0
23
70
2
1
1
0
0
0
29
115
7
0
10
12
1
0
44
84
1
0
5
25
11
3
39
53
0
17
5
3
10
11
116
116
16
116
60
8
0
0
23
116
63
15
83
59
0
0
50
69
8
0
12
43
13
5
82
67
0
16
77
86
92
30
18
11
3
116
71
50
31
17
11
54
58
12
6
2
2
2
98
116
25
8
0
0
1
8
56
70
8
7
92
79
67
9
0
2
6
2
28
38
116
73
10
6
1
5
11
35
49
11
7
17
2
12
24
26
3
4
1
1
3
1
10
15
52
66
63
41
10
0
0
8
71
118
79
41
2
118
16
17
14
17
26
30
53
118
3
0
0
0
0
0
13
11
1
0
2
13
118
102
19
62
52
87
54
52
33
31
8
118
69
118
88
17
0
0
3
118
24
3
1
0
0
0
1
23
5
10
12
26
22
2
2
118
29
12
8
7
0
0
46
84
12
16
60
87
0
0
15
110
5
0
3
6
2
0
9
3
2
10
10
16
5
10
4
118
5
3
0
2
1
4
45
71
0
0
5
70
20
4
27
74
0
0
0
12
6
0
13
0
12
52
24
1
31
16
0
2
70
103
10
2
10
4
0
0
47
116
31
2
4
3
0
1
20
116
51
4
3
0
0
19
30
54
40
15
30
7
2
116
116
80
31
6
4
2
19
15
26
116
108
18
17
9
7
0
8
116
30
0
2
9
6
11
2
0
0
4
53
44
19
83
9
1
2
2
10
64
116
9
1
4
13
33
116
87
86
0
0
13
3
2
32
80
101
0
25
15
8
9
9
10
2
9
51
51
19
12
6
21
45
4
6
9
24
48
116
56
40
15
34
6
0
2
24
40
98
3
19
36
5
1
2
38
18
1
16
39
77
55
14
19
4
0
8
72
96
17
2
9
3
0
0
13
28
1
2
31
18
28
6
1
1
1
5
40
50
91
119
52
9
7
8
14
23
7
66
118
119
79
7
2
2
0
0
34
119
51
3
2
1
46
9
53
47
11
3
3
22
119
31
3
2
4
16
90
86
29
7
2
44
62
32
86
54
3
0
8
119
48
0
0
2
4
1
20
39
67
86
28
6
54
6
6
5
11
33
119
69
119
1
0
4
1
4
46
87
9
0
6
48
10
0
16
31
139
113
10
1
9
7
1
2
105
24
0
1
12
11
3
16
41
14
0
1
6
20
19
6
5
0
0
0
4
22
39
8
28
68
12
2
43
80
15
34
147
6
0
0
23
53
17
63
64
4
3
29
23
15
2
9
7
0
0
17
19
14
8
14
48
2
0
0
19
147
125
58
147
59
1
0
8
41
20
28
54
13
5
16
29
32
4
5
7
4
1
8
23
29
3
3
147
22
0
0
0
44
124
33
147
99
5
0
0
2
5
10
22
22
25
65
20
2
0
0
2
5
9
42
18
3
0
0
1
11
18
7
68
126
0
0
6
2
3
17
63
126
22
2
1
6
4
27
28
36
114
7
9
16
10
7
5
24
103
9
7
0
0
0
122
126
2
1
110
28
8
38
38
75
6
10
16
18
25
126
51
1
2
2
29
69
35
23
0
1
4
3
19
44
6
0
40
126
14
1
126
61
25
10
2
8
0
26
37
7
37
124
11
14
2
23
14
71
67
30
4
13
3
5
83
101
9
0
0
14
9
4
21
57
50
19
3
35
17
3
15
6
5
2
8
83
40
17
20
4
0
0
2
44
38
24
1
1
5
1
0
35
87
16
24
6
21
6
10
15
44
49
5
10
73
31
21
15
3
3
5
3
114
87
2
1
2
5
20
2
2
13
3
24
50
30
126
16
2
1
6
12
15
60
33
3
7
1
39
87
24
24
13
2
17
4
1
34
91
51
24
22
20
109
7
1
10
7
116
53
15
5
4
46
21
13
8
24
68
3
15
126
32
6
0
27
124
12
1
28
68
9
6
28
109
67
1
0
0
0
10
77
126
11
2
8
2
3
0
126
126
2
2
7
1
1
0
58
126
17
0
0
1
0
30
41
0
9
33
32
20
3
50
21
1
21
119
41
4
0
160
160
1
2
3
0
0
0
33
48
0
0
8
2
0
0
13
4
10
65
19
15
44
10
91
7
4
106
72
16
8
3
160
15
1
5
3
1
1
16
43
2
0
1
14
11
8
4
1
1
2
9
14
23
123
51
57
13
3
42
38
8
56
72
160
20
2
7
8
9
5
24
36
2
1
3
18
43
40
14
3
45
16
5
25
16
16
7
40
121
32
0
2
2
12
30
160
64
2
1
6
1
1
22
19
12
13
13
18
5
2
11
0
18
122
46
31
15
0
0
29
13
118
113
19
2
0
0
137
31
8
15
9
1
0
2
49
7
0
1
24
4
0
2
2
19
50
19
11
75
73
4
29
7
36
59
65
137
70
6
137
17
2
10
25
21
3
12
59
7
0
1
28
2
0
4
3
5
11
50
27
120
56
0
42
36
36
12
3
69
45
5
137
25
12
1
5
6
2
21
68
13
0
1
18
2
0
6
32
8
47
94
8
3
1
20
17
31
126
67
0
1
3
6
99
108
27
2
7
4
1
4
42
8
0
0
14
14
4
19
0
0
0
21
51
10
0
0
17
1
0
28
124
63
1
4
71
24
25
31
24
8
1
13
11
23
38
55
32
0
0
11
0
0
0
21
76
49
7
0
21
3
2
35
124
96
5
13
124
40
14
8
22
9
4
56
29
90
120
19
7
0
0
4
0
0
0
19
123
26
1
0
9
11
24
78
124
53
3
0
124
45
20
12
5
5
9
88
38
24
7
0
0
4
44
120
0
0
1
60
124
22
0
0
0
0
1
17
124
68
16
9
4
2
1
1
2
9
28
50
4
17
7
0
0
1
75
74
0
2
58
28
11
22
3
0
15
22
31
26
1
0
2
3
124
32
7
2
0
0
3
73
52
1
0
0
0
0
4
58
0
3
111
124
25
5
0
0
8
8
19
90
124
26
25
14
124
34
1
1
9
9
27
103
96
25
1
0
0
0
0
24
2
1
5
21
41
112
65
6
14
4
4
96
124
33
16
8
124
41
5
30
25
2
2
74
95
29
2
0
0
0
3
61
12
0
0
10
11
78
58
37
18
0
0
25
56
17
37
49
124
33
3
15
34
5
4
38
89
13
0
0
0
0
3
35
30
55
0
0
44
96
0
0
88
69
0
0
0
1
2
22
65
47
6
0
0
9
16
27
104
102
0
0
1
36
37
26
47
30
0
0
8
23
29
65
94
66
0
0
0
0
4
62
51
100
0
0
0
2
6
17
30
15
9
2
5
49
62
25
75
15
1
1
8
50
53
77
127
66
8
0
0
0
3
76
35
35
26
6
11
12
2
31
7
5
5
2
18
67
40
34
45
127
108
9
10
9
2
5
98
127
31
0
0
0
0
2
8
62
63
70
69
11
0
0
19
6
1
33
121
70
16
6
2
1
17
14
8
87
53
3
113
7
1
2
2
21
31
83
47
3
0
0
5
20
89
99
2
0
0
0
1
14
121
48
14
4
11
39
30
37
9
2
121
45
2
8
10
12
9
25
41
17
2
4
71
121
26
11
25
0
0
0
20
56
62
91
6
1
78
121
9
5
1
4
76
6
50
107
6
23
45
64
7
0
4
26
20
121
68
18
68
16
0
0
4
41
23
48
0
0
18
44
1
0
6
15
0
0
56
121
2
2
7
11
0
0
66
121
8
12
7
1
84
28
23
40
5
1
2
8
1
6
16
0
0
33
67
1
0
6
11
1
0
67
120
1
3
2
6
3
1
97
120
6
16
0
1
1
2
26
86
38
18
5
0
2
2
80
120
6
89
73
46
22
1
44
98
11
14
14
55
120
15
24
38
14
55
23
4
24
4
7
24
23
35
15
21
70
14
5
6
5
120
35
18
8
2
0
2
67
30
10
24
120
32
2
4
31
33
38
69
101
3
1
3
3
9
29
55
67
30
6
1
0
54
78
82
18
0
0
0
27
42
120
54
15
0
0
0
16
1
42
120
27
0
2
4
0
187
10
0
0
40
1
0
0
168
4
0
1
21
4
0
2
0
3
1
2
7
4
3
0
2
1
0
3
8
3
1
0
187
19
0
0
44
3
0
0
187
6
0
0
24
11
1
1
0
0
0
0
6
11
13
1
5
2
0
0
1
4
4
0
187
8
0
0
39
3
0
3
178
2
0
3
24
6
0
3
1
1
3
4
7
3
1
0
9
1
0
0
0
1
1
2
187
32
0
0
30
1
0
1
121
11
0
2
18
2
0
0
0
0
0
2
7
5
0
0
8
0
0
0
2
5
1
3
3
0
0
129
60
1
0
7
4
19
9
129
58
2
4
1
91
129
5
5
0
0
1
1
45
129
29
27
3
0
0
2
3
0
1
29
40
83
23
8
27
16
21
88
100
86
6
2
129
80
6
9
5
2
0
13
80
21
1
7
5
3
11
13
2
23
19
62
66
46
7
0
17
49
88
75
37
50
10
2
129
22
11
32
21
8
0
19
89
5
0
13
21
4
3
6
1
4
5
86
27
3
2
0
6
33
25
52
39
58
19
2
98
128
7
2
11
15
1
2
40
14
0
6
8
0
2
7
2
6
5
18
14
6
74
19
2
0
0
8
17
39
125
87
2
25
10
0
6
125
125
16
22
62
14
0
0
6
82
32
1
9
10
16
25
82
39
1
15
2
0
8
34
125
66
18
125
61
20
2
3
27
33
41
26
48
32
7
0
0
0
16
2
2
3
9
25
90
61
9
35
31
34
20
34
87
14
5
125
42
7
1
0
2
18
44
21
1
8
3
0
0
56
21
2
6
111
10
5
2
13
4
5
16
125
11
3
1
6
4
36
16
125
3
0
0
56
35
1
1
100
0
0
0
121
18
3
6
5
4
47
133
43
6
94
1
0
0
6
70
65
58
72
7
1
1
0
0
1
15
11
5
1
5
19
4
0
4
21
7
2
16
66
133
66
12
133
30
1
0
0
21
41
56
104
13
0
2
1
1
42
28
9
3
0
1
24
10
8
13
19
28
18
106
109
6
0
1
133
48
6
3
0
1
56
63
36
7
4
1
0
2
133
103
31
0
0
1
4
3
30
100
3
4
14
133
103
8
1
1
31
41
55
15
7
1
10
15
42
41
57
3
1
1
9
16
79
35
7
0
0
0
0
19
3
2
12
20
51
33
72
36
1
1
21
33
27
12
36
56
24
9
8
7
0
0
63
95
19
31
42
8
10
21
25
15
15
1
3
12
15
12
87
93
119
39
67
52
6
2
21
78
89
35
85
119
26
1
2
27
111
51
40
5
3
0
0
64
36
28
28
119
16
2
4
9
119
58
13
11
4
4
6
52
53
16
63
72
70
14
6
34
58
19
89
20
7
0
0
86
5
11
28
110
2
0
0
0
85
44
24
19
0
0
0
24
68
17
30
4
0
0
1
92
18
12
77
28
1
0
0
43
100
46
17
2
0
0
0
30
7
12
48
21
2
22
3
2
25
30
18
10
4
25
12
6
13
57
59
10
5
8
0
0
109
7
5
3
2
13
46
87
21
4
4
2
2
120
89
24
120
25
1
0
1
64
40
44
43
22
2
0
7
120
12
8
26
13
0
0
25
53
103
38
62
120
54
4
1
61
86
18
120
43
40
7
4
43
39
33
10
0
0
0
4
120
45
12
52
37
3
1
24
36
5
7
76
58
12
3
7
45
120
39
4
5
9
5
6
78
120
21
15
6
0
0
0
26
56
30
103
101
18
16
5
0
1
45
30
43
36
115
41
1
0
14
59
97
35
18
3
0
2
35
2
10
66
53
12
30
20
11
115
115
11
6
5
8
5
10
51
33
19
86
115
52
6
7
115
85
33
21
16
3
0
19
14
9
83
63
9
9
0
3
115
46
12
3
1
1
0
10
58
30
98
115
18
7
1
6
115
26
54
79
5
4
1
25
22
1
2
5
16
52
6
9
75
3
0
0
0
0
0
34
115
8
15
33
6
1
0
50
11
5
14
79
43
15
4
3
4
1
5
7
15
13
13
6
67
34
0
0
51
109
21
4
18
1
0
2
39
116
71
44
10
1
5
24
21
14
15
24
6
0
1
23
125
47
7
1
32
15
10
60
125
125
14
13
125
14
1
23
60
57
22
42
65
8
0
1
28
23
1
18
1
0
0
2
125
104
0
2
6
14
21
116
125
7
0
1
125
15
2
41
74
3
0
9
54
4
0
0
70
68
3
9
0
0
7
14
125
116
0
0
0
0
0
0
5
0
0
0
14
2
0
0
4
0
0
0
6
1
0
0
34
22
0
0
0
2
22
19
55
17
0
0
1
3
14
1
0
0
2
3
148
9
5
0
0
0
0
16
184
1
0
0
0
0
0
28
37
0
0
0
0
0
0
3
0
5
16
3
0
1
4
1
159
13
6
1
0
1
0
7
184
3
0
0
0
0
0
27
58
0
0
0
0
0
0
4
1
0
1
0
0
1
51
20
161
17
0
0
0
0
14
25
184
12
0
0
0
0
0
15
67
0
0
0
0
0
0
3
2
11
91
4
0
0
23
9
107
20
28
10
2
0
7
44
184
3
0
0
0
0
0
82
62
0
0
0
0
0
0
8
10
0
0
0
0
0
0
1
28
0
0
0
0
1
1
4
118
0
0
0
0
0
0
9
13
0
0
0
0
0
0
0
30
1
1
1
0
1
7
41
144
6
0
0
0
12
34
46
223
3
0
0
0
0
2
43
72
0
0
0
0
0
0
3
5
27
57
5
0
0
3
15
133
85
32
0
0
2
10
14
223
44
0
0
0
0
0
14
84
0
0
0
0
0
0
2
2
8
13
0
0
3
25
9
85
17
7
0
0
0
32
50
223
7
0
0
0
0
1
67
71
0
0
0
0
0
0
4
2
14
42
3
0
0
2
5
67
58
29
0
0
0
4
8
208
66
1
0
0
0
0
2
60
4
0
0
0
0
0
0
1
3
6
2
0
3
30
12
108
13
5
0
0
0
33
56
208
18
0
0
0
0
0
34
69
2
0
0
0
0
0
0
1
2
13
6
0
1
6
4
139
27
14
0
0
0
6
13
208
34
0
0
0
0
0
6
63
2
0
0
0
0
0
0
0
7
21
3
0
0
2
2
121
19
11
2
0
0
0
5
208
26
0
0
0
0
0
0
43
1
0
0
0
0
0
0
57
4
6
12
1
2
8
119
92
23
1
0
0
0
1
134
28
4
1
0
0
0
2
134
7
0
0
0
0
0
0
38
73
31
96
85
0
0
0
5
134
113
39
6
0
0
0
23
80
36
49
16
7
1
3
134
28
0
0
0
2
0
12
134
8
21
84
72
0
1
1
1
134
47
41
13
0
2
1
32
68
9
24
43
39
2
5
37
50
27
26
16
11
1
13
94
3
3
9
5
1
18
49
44
101
30
8
1
1
26
17
28
105
24
16
8
1
0
0
10
12
22
30
5
0
0
0
1
1
0
0
3
35
25
116
39
36
0
0
0
8
6
163
163
8
0
0
0
1
20
163
163
0
0
0
0
1
16
163
163
11
1
0
0
13
57
58
8
141
9
0
0
4
13
10
34
27
1
0
0
32
76
39
22
18
5
0
0
21
41
74
39
23
24
6
4
7
14
11
5
113
37
1
0
2
5
4
13
10
3
0
2
48
45
5
6
16
20
1
1
13
9
0
0
31
7
2
4
7
2
2
23
83
17
0
2
9
1
0
12
5
3
0
3
51
21
4
5
5
6
0
0
3
11
10
15
1
2
3
18
29
5
0
0
44
10
15
14
5
0
0
7
29
2
0
27
31
1
1
13
2
1
4
32
31
5
1
3
7
7
4
20
28
3
0
1
18
7
9
6
18
6
0
7
48
9
4
15
17
2
1
13
5
14
5
47
58
4
0
1
4
6
10
15
35
2
0
1
17
15
36
17
25
1
0
2
78
64
57
13
8
0
0
2
8
24
121
74
22
0
0
1
0
71
185
8
4
0
0
0
1
129
185
9
1
0
0
0
7
185
185
3
0
0
0
0
0
90
185
12
0
0
0
0
57
4
0
3
49
14
17
24
68
4
0
4
20
25
16
23
109
16
2
6
8
3
5
34
0
0
1
7
136
41
3
2
46
22
2
18
42
7
9
9
48
9
1
9
40
41
15
36
136
10
0
1
14
8
6
102
10
1
0
4
136
49
0
4
7
1
0
19
104
34
52
31
66
22
2
1
17
31
42
55
136
45
0
0
8
21
4
22
8
1
0
0
136
83
2
2
15
0
0
21
136
20
5
18
104
3
0
1
13
3
3
100
74
3
0
0
9
12
4
92
1
0
0
5
136
41
1
5
22
18
5
8
14
47
45
9
135
44
3
2
6
20
12
33
29
10
1
6
92
70
7
12
36
25
1
3
20
16
3
4
38
14
7
45
56
10
11
45
135
40
3
5
22
4
0
63
32
10
2
12
135
56
17
21
23
19
1
2
11
36
30
40
47
9
5
35
96
17
0
5
135
31
1
4
40
20
0
14
50
2
0
4
135
107
7
14
122
18
1
0
11
13
8
35
48
12
0
30
76
4
0
2
135
40
0
3
46
33
3
11
34
9
0
4
135
85
4
11
84
8
0
0
4
4
9
44
39
16
12
47
47
3
0
2
133
46
3
17
51
1
0
25
18
4
1
35
133
2
0
12
86
4
0
1
9
0
0
52
34
6
4
70
98
4
0
2
133
34
3
23
48
0
0
32
27
7
1
92
133
3
2
6
75
5
4
24
25
4
11
88
16
28
34
43
45
14
1
0
133
34
28
24
21
4
1
30
31
2
2
108
133
16
2
14
20
12
15
56
51
20
7
28
16
17
6
13
37
11
0
5
96
21
5
5
25
13
2
18
40
22
12
75
133
8
0
4
18
82
27
33
71
12
3
5
67
51
3
1
31
53
49
39
143
73
0
0
1
2
2
69
50
21
2
1
0
0
0
11
4
8
4
9
45
3
0
0
143
143
0
0
1
11
56
34
129
141
4
1
0
0
0
17
124
10
1
1
4
2
0
24
14
4
1
4
77
20
0
1
143
143
1
0
0
0
0
20
40
41
13
10
2
1
1
5
99
4
1
1
4
8
4
23
7
0
0
1
44
32
3
5
143
15
0
0
0
0
0
143
31
1
0
0
1
2
4
25
38
0
0
1
1
1
1
26
5
0
1
6
5
3
0
6
24
11
4
11
14
15
8
11
127
111
0
0
1
2
12
30
69
46
2
1
49
37
26
10
0
0
0
2
51
20
0
0
34
98
34
4
4
34
7
7
127
54
38
39
8
7
99
100
102
10
1
3
10
28
126
113
9
0
0
0
37
37
7
7
85
127
61
19
7
2
1
2
22
65
75
127
61
5
10
7
127
89
25
36
16
8
6
18
15
4
0
0
65
61
5
2
39
57
18
1
4
6
19
39
7
7
17
55
28
6
7
12
10
34
28
22
40
7
0
0
5
5
0
1
78
23
0
0
8
9
100
118
32
1
0
1
0
1
112
121
25
4
3
11
6
39
63
35
5
3
11
20
21
25
86
11
2
2
1
3
17
18
38
15
13
52
18
8
12
10
44
92
110
121
13
6
121
121
121
24
16
16
4
34
16
33
121
21
1
3
16
12
0
1
9
25
40
36
10
0
5
26
121
53
43
49
11
2
95
104
76
3
2
3
17
32
18
6
9
2
0
7
67
25
0
0
3
4
3
22
73
0
0
2
21
4
0
5
105
7
7
7
7
0
0
0
63
29
1
0
0
0
0
4
38
3
82
81
0
0
0
0
0
18
132
22
0
0
0
0
0
132
58
1
0
0
0
0
1
132
7
0
0
0
0
0
1
10
116
14
1
0
0
0
3
54
132
18
9
4
0
0
0
88
132
12
0
0
0
0
0
129
28
1
0
1
5
7
1
9
122
31
25
7
3
0
1
14
132
82
17
1
0
0
0
8
132
89
2
0
0
0
2
12
29
1
0
0
2
20
7
7
81
10
5
6
6
3
17
18
132
35
0
0
0
0
0
8
132
15
0
0
0
0
1
21
15
5
0
0
0
3
3
4
1
0
0
0
0
58
59
12
5
1
0
0
0
32
129
12
4
5
2
0
0
20
137
16
0
1
1
1
5
25
128
6
0
0
0
0
2
36
69
45
16
2
2
4
14
49
59
25
96
17
6
4
14
6
19
34
6
6
4
5
62
24
5
2
8
44
53
44
3
1
15
24
17
60
137
15
5
2
3
5
78
53
126
14
13
7
1
5
5
1
43
60
44
19
2
3
72
91
64
31
22
16
2
21
41
100
137
2
0
1
7
19
0
20
137
36
3
5
12
0
0
0
111
137
14
1
1
0
52
18
0
3
56
13
0
5
122
0
0
0
28
13
2
47
60
13
0
2
104
27
1
12
122
55
0
1
16
1
0
1
51
14
0
5
101
12
0
12
122
4
0
1
57
8
1
16
114
21
0
1
90
31
1
6
122
40
0
0
5
37
31
11
79
6
1
16
97
4
0
8
122
18
1
12
64
5
0
10
113
42
7
21
58
26
1
5
120
54
3
7
38
94
21
11
72
7
2
14
47
2
0
3
92
51
5
15
24
0
0
0
70
53
9
21
9
1
0
0
65
36
11
89
44
4
1
24
1
1
12
8
69
67
24
13
18
7
29
10
6
4
39
22
133
29
2
2
2
0
2
10
124
27
0
0
0
0
0
10
2
35
107
17
13
44
9
5
40
13
47
77
15
1
20
29
133
23
0
5
2
0
1
24
133
25
0
0
0
0
0
9
1
53
118
22
10
21
5
0
46
8
40
92
133
63
2
0
133
14
0
7
23
4
0
8
113
3
0
0
0
0
0
33
1
5
2
3
15
110
57
0
40
4
0
2
52
132
11
3
133
8
0
0
6
5
0
29
74
0
0
0
0
0
0
33
4
14
90
24
2
17
47
30
83
129
42
0
6
26
14
0
129
39
1
66
54
0
0
3
5
46
54
129
67
3
2
0
0
22
74
6
0
0
0
0
63
43
36
0
0
0
0
2
129
6
0
18
37
5
0
16
8
5
5
52
129
129
34
1
0
18
32
2
0
0
0
0
29
19
37
3
0
0
0
0
129
11
1
9
32
3
0
16
10
0
0
129
129
60
7
3
0
11
9
2
0
0
0
3
5
3
9
2
2
5
2
3
39
1
0
2
3
46
41
39
4
0
0
63
93
129
67
11
0
0
0
1
28
147
53
0
140
10
0
4
38
67
0
21
147
5
0
0
0
0
0
64
94
0
0
0
0
0
0
47
0
0
38
37
20
26
22
0
87
7
18
40
26
6
1
38
147
11
1
1
0
0
0
90
113
0
0
0
0
0
0
40
1
0
119
75
7
0
0
2
47
26
78
130
21
0
0
0
147
54
11
8
1
0
1
4
66
0
0
0
0
1
4
44
19
0
7
8
22
2
0
12
33
4
3
20
88
7
0
0
147
17
1
2
9
1
0
0
17
1
0
2
3
2
2
17
147
155
2
1
0
0
0
2
155
88
0
0
0
0
0
0
155
36
0
0
0
5
5
5
7
2
0
0
3
22
8
2
96
61
0
0
2
2
5
20
155
74
0
0
0
0
0
40
88
55
1
2
2
2
2
5
5
3
0
0
0
1
1
0
50
7
0
0
5
8
7
21
155
38
0
0
0
0
3
91
82
10
0
1
1
2
3
23
0
0
0
0
0
0
0
0
12
1
0
0
18
84
31
30
110
11
0
0
1
19
53
155
17
1
0
0
0
0
7
84
0
0
0
0
0
0
0
0
0
0
0
1
4
85
49
0
0
2
1
2
2
117
117
1
0
13
12
0
0
117
114
0
0
29
33
0
0
62
48
0
7
2
0
0
3
117
117
5
105
39
4
0
0
74
117
26
23
87
58
0
0
14
14
1
0
54
49
0
0
6
5
0
14
26
25
3
5
70
12
1
117
25
4
0
0
1
1
44
89
23
8
0
4
21
1
31
10
9
4
0
4
82
21
4
1
11
83
111
5
0
0
0
86
91
14
26
5
0
0
21
72
108
52
60
18
14
0
13
27
19
44
68
18
33
3
1
1
1
0
0
83
129
5
0
45
25
2
0
105
118
3
12
59
23
33
30
2
6
1
23
6
30
31
15
3
17
13
6
10
0
0
0
12
129
32
5
129
72
5
0
13
73
15
23
32
43
16
3
10
129
28
8
17
2
0
0
2
82
110
16
19
6
0
3
25
101
4
7
129
38
5
8
8
32
21
74
10
4
3
28
65
129
36
13
100
20
0
2
5
38
43
14
26
19
0
4
17
11
1
0
80
64
13
15
16
12
5
15
3
8
13
48
106
31
3
2
89
42
18
6
7
0
0
0
16
3
6
17
27
20
62
33
3
2
15
93
59
7
4
4
60
2
9
21
9
0
4
28
138
2
0
0
0
0
0
39
25
1
1
4
10
13
49
96
86
25
47
55
29
10
37
52
59
18
63
138
20
0
0
2
138
14
3
9
2
0
0
42
26
18
6
88
15
3
8
14
138
51
6
8
4
3
4
29
43
5
14
97
91
16
2
9
131
2
10
35
18
0
0
136
8
35
19
138
25
0
0
0
83
88
12
7
2
1
1
4
18
3
19
32
15
38
25
5
22
2
14
38
7
21
33
28
89
121
3
0
1
4
1
3
20
29
4
24
121
39
6
1
118
78
7
14
54
5
2
7
17
34
36
0
0
0
1
1
49
105
19
14
49
38
23
20
19
9
6
21
121
121
51
15
121
21
4
5
12
23
23
54
48
11
1
0
2
6
0
1
24
7
3
5
34
75
94
38
61
41
82
51
75
51
29
8
121
76
60
26
6
2
1
9
41
7
0
0
28
65
0
0
16
3
3
10
41
13
4
7
121
16
11
10
10
3
2
24
83
11
8
13
19
6
2
11
19
0
0
0
115
80
0
3
0
0
0
0
6
61
34
0
1
3
2
1
27
108
24
0
10
62
41
1
3
33
14
0
19
70
52
6
6
7
2
1
0
0
0
2
21
80
22
0
17
7
3
1
6
39
22
10
147
63
12
0
0
4
8
34
22
30
29
11
49
160
13
11
2
9
6
24
25
12
1
0
20
65
28
8
9
6
1
1
60
45
14
0
13
112
22
23
5
0
1
11
79
160
30
10
3
14
33
37
12
0
0
0
25
34
23
11
16
23
1
0
4
8
15
9
112
160
2
0
0
6
100
99
97
160
1
0
150
119
22
3
0
3
3
1
122
48
0
0
1
1
1
8
42
28
2
1
1
12
25
7
1
1
1
9
24
17
17
3
28
100
47
13
7
51
33
17
150
14
0
1
4
37
20
55
45
2
0
11
31
22
14
10
5
1
0
1
11
9
17
20
58
4
0
0
4
128
150
42
150
65
3
3
2
24
37
42
37
13
6
34
41
26
1
2
17
12
1
4
6
6
3
6
150
24
0
1
3
47
76
33
150
87
5
5
1
2
5
14
17
13
10
59
43
21
2
2
23
14
2
10
12
7
0
3
15
1
0
0
14
46
117
49
2
1
1
0
0
6
124
84
1
1
2
3
1
4
124
64
4
4
1
0
0
3
120
66
22
2
3
11
28
124
39
31
124
53
21
7
1
12
49
71
24
43
107
69
3
6
60
20
30
82
46
17
1
2
53
41
18
7
70
124
19
23
4
2
124
33
22
26
7
1
1
81
53
9
26
33
14
21
6
51
8
10
11
29
11
20
62
20
0
5
21
65
51
13
0
1
57
21
45
35
30
3
0
49
94
6
3
18
5
1
1
67
1
0
11
70
9
5
7
2
2
67
138
11
29
19
3
6
78
77
103
21
7
0
4
20
138
18
1
1
1
0
0
22
86
10
0
0
0
2
1
8
3
134
82
7
15
8
6
5
35
14
58
49
138
35
4
12
138
15
2
5
14
7
2
47
91
8
0
0
2
7
8
21
15
12
2
1
20
41
20
28
35
25
58
97
79
12
4
12
138
54
29
39
15
2
0
24
72
15
4
6
11
3
2
14
76
3
0
0
21
43
8
29
87
16
16
18
37
35
4
12
108
9
15
16
40
21
1
56
61
3
1
0
12
13
3
45
52
5
28
31
86
25
2
14
147
5
0
0
2
2
1
42
114
6
0
0
0
5
8
27
1
0
0
0
39
57
10
2
51
22
42
89
107
18
1
6
147
74
14
11
2
1
0
18
98
34
4
7
4
2
6
11
1
3
3
6
86
32
5
0
40
28
60
90
53
22
2
5
147
25
13
25
29
9
0
84
98
5
4
5
13
7
3
60
7
4
2
4
97
42
6
9
31
8
11
6
48
57
4
5
125
29
42
9
24
12
0
53
94
16
6
3
11
19
5
55
0
0
0
3
81
102
8
6
20
8
7
8
4
2
66
46
2
1
1
4
11
27
137
97
3
14
3
1
12
133
137
23
33
35
2
0
1
10
88
40
0
3
10
14
15
54
43
1
11
1
1
5
29
137
47
11
122
47
10
0
0
26
33
29
42
47
15
0
0
0
2
26
2
1
5
4
8
48
69
3
23
21
31
20
25
68
12
3
137
31
11
0
0
3
21
47
14
1
5
0
0
0
76
24
1
7
137
2
0
0
0
0
2
7
137
8
1
0
0
0
11
8
137
4
0
0
15
18
0
1
137
2
0
0
50
8
13
1
1
3
6
9
8
8
124
88
30
9
1
0
1
2
13
35
47
129
69
0
0
0
5
7
4
84
75
2
1
7
51
11
0
0
0
4
14
40
134
120
7
10
17
5
4
30
46
35
14
72
134
21
4
7
3
11
21
109
68
6
2
0
43
9
19
24
4
0
0
33
134
13
0
1
6
13
37
134
22
3
1
14
113
110
59
48
4
0
4
30
45
60
40
2
8
11
25
39
6
0
0
0
121
33
10
8
0
0
3
20
34
12
5
37
20
6
5
7
9
0
1
92
41
6
4
2
5
6
0
0
124
24
0
1
18
41
26
0
5
0
0
6
28
123
35
0
0
0
0
5
12
94
62
44
25
2
0
0
10
4
0
0
124
33
1
13
61
33
16
0
2
0
5
89
124
124
26
0
3
11
1
35
22
65
7
10
74
124
9
7
3
0
0
0
124
23
0
4
124
38
0
0
1
0
1
31
124
34
0
0
10
35
24
47
10
2
11
24
113
124
22
16
2
0
2
3
124
12
1
0
103
6
2
1
0
1
3
37
65
2
0
1
8
15
12
40
19
16
14
14
18
17
5
1
1
1
1
4
8
43
17
11
33
14
12
2
1
3
9
125
31
4
9
3
0
0
30
125
42
17
5
16
14
4
14
24
28
9
4
3
1
2
6
25
110
95
65
32
5
0
1
29
80
15
44
84
47
8
29
125
59
9
1
7
11
18
125
100
45
30
0
1
0
0
7
21
125
49
3
10
19
1
13
77
30
5
12
99
125
27
34
45
43
84
26
27
24
13
125
45
21
10
0
48
11
1
26
21
41
5
0
0
1
2
49
125
15
1
5
31
55
26
25
76
34
27
15
19
16
4
1
31
14
68
35
86
83
0
0
0
92
124
32
40
32
8
0
3
58
112
42
71
52
8
0
3
24
53
69
90
11
10
8
6
27
40
28
33
14
2
0
1
124
100
43
50
12
3
0
7
94
66
80
124
22
5
1
3
44
18
16
34
36
44
7
5
25
3
1
0
1
2
1
8
124
10
5
9
4
3
1
57
54
8
16
60
80
61
11
16
5
1
2
19
30
30
17
17
8
0
0
0
8
13
6
9
124
0
0
0
7
8
10
97
51
1
3
35
124
46
9
35
32
0
1
17
22
11
9
46
54
50
1
1
10
23
16
38
73
63
2
11
41
30
7
16
111
64
5
20
68
38
6
15
52
39
16
53
111
50
7
7
88
40
8
2
1
2
5
52
57
11
1
2
42
111
56
45
111
9
0
0
18
76
49
84
30
10
9
23
75
72
56
26
74
104
16
2
14
13
2
9
23
39
7
12
111
67
7
6
111
53
6
3
15
11
6
43
33
23
18
2
4
23
12
13
43
11
1
0
24
30
0
9
4
4
1
2
50
69
31
13
78
5
0
0
4
30
27
71
107
19
0
0
11
111
73
57
19
25
39
39
1
0
0
1
90
28
14
3
2
2
1
45
49
0
3
49
78
19
2
32
20
14
13
73
79
8
3
17
56
25
56
91
10
1
0
3
34
9
28
84
62
5
5
65
85
27
17
37
41
13
9
99
2
5
45
101
43
9
2
0
26
17
13
32
25
19
2
3
26
36
54
107
38
6
2
5
107
75
38
76
9
0
2
36
14
9
30
85
80
4
2
10
21
14
2
44
107
78
65
69
81
62
35
72
21
1
9
83
40
6
13
107
90
4
13
66
48
9
9
54
40
3
10
43
13
3
1
0
0
4
2
2
150
72
1
0
0
0
1
2
103
48
16
77
56
30
3
2
17
25
12
38
29
27
13
3
39
3
0
0
4
31
20
20
150
73
0
0
7
9
5
34
83
16
0
1
101
150
27
14
28
0
0
3
18
59
42
46
46
0
0
0
16
77
44
58
150
37
4
9
13
11
14
129
50
16
8
115
150
64
5
15
115
3
1
20
28
13
5
28
7
0
0
0
1
3
1
3
54
17
2
4
0
0
0
4
7
7
4
49
44
0
0
0
35
1
0
8
16
2
0
4
132
65
65
11
0
0
0
39
132
73
7
3
2
0
4
110
27
4
3
4
3
0
26
132
14
0
0
0
0
0
5
78
62
46
104
21
0
4
13
13
132
33
15
11
3
1
3
62
66
51
53
17
5
0
7
50
63
15
1
0
0
0
7
86
43
81
8
1
0
10
82
78
132
132
6
0
0
3
7
30
71
41
13
0
0
0
0
1
12
6
1
0
1
15
17
15
29
132
32
0
0
0
3
13
47
132
12
0
0
0
0
0
23
37
6
2
9
6
0
0
0
0
1
1
17
25
0
0
0
3
26
32
26
21
10
6
0
0
55
119
20
16
5
2
0
43
119
119
8
9
4
0
1
69
119
35
12
1
4
0
0
0
1
1
32
52
89
59
8
1
11
33
4
31
110
44
70
57
85
29
1
5
16
34
16
44
60
44
85
11
1
5
3
0
0
23
84
58
62
52
115
16
0
1
1
4
67
111
119
51
0
0
0
0
3
27
17
4
3
25
26
10
1
5
4
7
39
119
56
1
1
4
114
71
72
14
1
0
0
34
85
20
9
2
0
0
3
54
3
0
0
0
10
34
12
14
0
0
0
0
0
0
0
0
8
4
1
23
11
0
1
3
1
1
2
56
47
2
1
0
0
0
1
149
149
43
1
0
0
0
0
0
0
0
0
0
84
25
5
12
12
0
0
2
13
8
5
62
147
12
1
0
0
0
3
17
149
149
2
0
2
0
0
0
0
0
0
0
110
4
0
1
9
6
3
34
14
1
0
44
149
23
3
10
1
9
14
133
149
85
0
0
2
1
0
0
0
0
0
0
64
27
7
2
1
1
1
8
9
4
4
35
55
22
2
2
0
1
10
149
97
36
14
3
148
27
7
2
0
9
12
148
115
39
8
1
1
0
1
37
8
3
1
3
47
39
15
7
0
0
0
0
8
13
7
0
148
148
0
0
0
8
16
43
148
50
4
4
11
2
0
16
12
11
5
16
125
16
0
0
0
0
0
0
9
1
0
0
148
148
7
0
0
0
0
12
148
15
2
0
14
17
6
28
11
0
0
1
67
44
4
5
0
0
0
0
0
0
0
0
148
13
0
0
0
0
0
77
61
1
0
1
3
3
2
40
6
0
0
2
7
5
1
6
0
0
0
0
0
0
0
0
22
2
0
48
64
3
1
11
123
6
0
4
16
4
0
42
29
0
0
2
99
56
15
16
51
11
0
0
3
12
21
26
23
3
0
34
123
8
0
0
123
17
0
5
41
9
0
9
48
1
0
1
123
62
1
15
109
3
0
0
10
7
1
64
16
2
0
57
107
15
0
1
123
9
0
9
43
48
4
38
25
0
0
0
123
123
8
32
80
0
0
0
3
6
3
85
17
1
0
4
91
91
9
7
81
13
1
2
68
37
7
19
25
0
0
0
120
84
3
34
72
0
0
0
1
3
7
72
44
10
19
81
15
0
0
4
122
17
4
26
25
3
0
32
57
31
9
48
47
1
0
15
96
15
0
0
0
0
0
60
16
11
15
109
33
0
0
0
122
73
13
41
16
0
0
6
39
13
6
93
122
0
1
30
66
0
0
3
12
0
2
115
7
3
11
122
33
0
0
0
122
15
4
36
23
0
0
45
62
2
1
102
122
0
0
18
60
0
0
29
42
0
3
88
4
5
6
62
75
1
0
0
100
28
26
35
16
0
0
9
71
4
1
82
81
0
1
14
9
4
3
72
68
2
1
20
1
8
16
18
18
12
12
1
115
15
5
0
0
7
17
100
91
6
2
18
20
17
22
81
0
0
0
22
35
13
13
4
0
0
1
70
67
12
6
0
51
3
2
21
17
9
15
115
57
24
20
2
2
38
115
115
36
11
16
7
15
19
53
71
0
0
14
115
74
1
0
0
72
20
1
27
92
11
1
8
115
114
71
13
1
2
7
27
31
40
95
25
1
1
3
11
0
0
10
107
115
0
0
0
33
92
31
37
78
1
0
0
115
90
8
3
4
4
18
25
5
2
8
5
1
4
37
32
20
4
3
6
8
2
48
63
73
120
41
9
6
0
7
49
13
88
31
10
9
1
1
2
2
5
6
24
1
4
5
0
42
92
18
4
11
1
32
57
120
118
20
2
7
0
4
94
42
7
3
9
74
12
5
7
0
0
0
0
6
18
29
0
83
120
26
2
20
8
25
24
73
114
28
0
4
21
61
75
27
3
0
2
105
49
8
42
1
5
9
4
16
41
55
5
37
10
4
6
17
23
120
79
88
62
2
0
0
33
120
111
72
30
5
25
79
24
4
62
10
13
15
21
29
18
17
15
4
9
15
87
105
0
0
0
121
121
54
103
85
0
0
0
92
90
10
1
14
13
12
7
66
21
3
0
0
2
10
34
6
1
3
43
105
3
0
1
121
85
20
22
45
4
0
12
49
30
1
16
100
22
6
5
121
24
0
2
7
4
5
16
7
2
1
24
101
13
1
3
121
19
0
19
58
5
1
12
62
11
3
32
78
36
2
7
121
27
1
2
4
2
0
4
21
1
0
6
64
18
3
20
121
23
1
13
40
0
0
1
47
20
12
69
30
4
0
1
92
45
5
6
2
0
0
2
138
7
59
138
1
0
0
138
138
16
10
6
0
0
0
138
37
32
4
0
0
6
11
15
25
0
0
0
0
1
10
65
53
21
50
138
18
0
0
20
138
78
34
46
1
0
0
88
52
9
1
28
34
17
10
12
52
0
0
7
6
6
11
73
1
7
36
116
8
0
0
0
104
53
30
50
9
0
0
56
50
4
2
52
27
2
0
62
28
0
1
32
29
1
1
33
1
0
4
56
17
0
0
2
12
0
0
88
18
0
0
31
55
0
2
20
10
2
0
99
15
3
22
37
17
1
0
12
0
0
0
0
28
119
17
0
0
3
3
0
11
107
62
0
0
14
25
4
2
119
60
0
13
32
38
8
3
59
29
1
12
1
1
0
2
119
74
7
82
36
10
0
0
82
75
26
10
51
41
3
2
36
17
3
7
18
31
19
10
34
7
1
17
24
119
64
1
76
16
3
119
119
60
36
4
7
2
25
41
47
86
71
13
27
9
6
25
37
46
39
19
3
1
1
36
40
98
67
0
0
4
51
13
119
108
35
2
17
7
0
2
28
83
77
10
13
5
1
1
19
78
19
25
22
2
0
34
7
4
58
71
20
3
12
129
35
12
38
32
5
0
20
145
7
0
1
2
1
0
64
20
8
2
8
12
4
0
5
71
44
56
103
26
0
0
2
68
20
42
145
21
0
0
19
145
9
1
9
3
0
0
46
43
3
0
2
13
6
1
7
136
42
27
36
3
0
0
4
34
14
20
145
112
0
0
0
145
44
3
38
20
0
0
2
40
14
7
7
9
1
0
0
24
36
33
15
4
0
0
0
9
13
5
67
99
0
0
0
134
69
7
28
19
0
0
0
20
16
8
1
0
1
2
1
167
1
0
3
9
4
1
140
42
24
6
24
28
6
0
9
96
33
0
0
0
0
0
11
2
0
0
0
0
0
0
0
167
3
0
4
2
0
0
157
77
4
2
8
30
9
3
31
92
9
0
0
1
2
2
66
8
0
0
0
0
0
0
4
167
16
8
55
13
0
0
59
127
17
11
17
31
2
0
12
111
48
4
2
2
0
0
4
13
4
0
0
0
0
0
0
167
48
4
74
36
0
0
6
116
32
18
5
0
0
1
3
51
41
7
0
0
0
3
11
18
6
0
0
0
0
0
4
34
32
5
1
99
53
1
12
71
67
7
1
20
39
66
42
29
35
34
23
54
110
103
21
110
110
46
20
18
29
14
12
63
22
5
1
88
56
3
38
67
19
1
4
55
38
9
29
110
80
29
12
9
7
10
20
75
89
42
12
6
27
3
7
31
95
15
5
50
14
0
1
31
27
24
16
59
7
0
7
110
17
16
6
4
0
7
107
94
12
0
0
76
80
5
31
40
26
0
1
21
10
1
3
23
14
29
15
18
10
5
35
64
81
38
18
1
0
0
13
52
32
0
25
110
60
0
2
33
3
10
20
15
1
1
43
34
2
12
21
7
0
1
15
61
1
0
0
0
0
0
24
0
0
0
0
0
0
0
0
149
8
14
16
7
2
6
149
28
3
14
47
75
7
1
17
149
10
0
2
6
0
0
13
14
1
0
0
0
0
0
0
149
4
0
0
2
2
3
149
62
6
6
33
35
7
2
96
116
16
5
9
4
0
2
42
19
0
0
0
0
0
0
23
149
18
17
14
0
0
1
149
149
0
0
6
11
1
0
149
39
3
1
6
19
3
6
41
45
1
0
0
0
0
0
25
142
1
0
1
11
0
0
14
16
32
31
33
72
4
0
0
26
142
88
18
18
3
2
4
0
11
3
0
0
0
0
0
142
5
0
5
9
0
0
4
116
37
9
8
16
0
0
17
142
113
24
0
0
0
0
58
7
4
1
0
0
0
0
1
142
0
0
1
4
5
2
19
120
29
0
2
3
2
1
23
142
68
0
0
0
0
0
39
10
2
0
0
0
0
0
1
142
0
0
0
0
2
1
13
65
0
0
0
1
3
3
48
142
3
0
0
0
0
0
135
6
0
0
0
0
0
0
6
109
119
3
1
2
4
0
4
19
23
5
40
110
38
1
1
112
75
4
15
30
5
1
9
21
46
26
2
2
0
0
1
64
113
9
5
47
38
13
13
17
7
6
9
119
119
24
16
119
21
3
2
8
20
16
64
65
12
2
0
9
14
0
2
33
8
0
1
29
79
87
32
42
42
75
25
73
58
23
7
119
99
60
5
3
2
1
9
57
5
0
0
46
86
0
1
16
2
0
5
38
16
7
9
119
18
13
2
1
2
4
26
60
19
17
1
2
3
5
19
16
0
0
0
119
74
1
5
65
39
7
17
11
2
2
48
24
37
17
109
43
0
0
1
149
149
4
8
1
0
0
1
86
59
0
6
32
0
0
0
80
137
14
9
12
4
0
1
66
36
8
57
111
12
0
1
149
121
3
6
7
0
0
16
54
24
0
6
29
7
1
4
10
48
12
4
15
29
28
0
44
4
4
34
48
27
57
10
149
5
3
4
3
2
6
76
45
0
1
0
6
38
25
27
0
2
1
16
81
33
14
0
35
49
2
3
14
19
47
19
149
32
0
0
0
0
4
46
42
5
11
1
0
5
3
26
17
0
0
57
47
0
1
31
14
0
0
1
1
2
23
112
11
4
9
19
15
18
18
36
10
1
8
42
10
7
24
85
0
0
0
105
99
2
2
6
18
3
0
31
48
20
67
82
122
22
12
19
3
1
18
111
49
10
17
111
53
8
1
13
1
0
0
83
75
0
0
1
42
22
6
122
111
5
3
7
122
90
5
10
9
3
3
27
38
16
5
35
122
49
6
8
2
1
1
27
18
0
0
1
23
3
2
122
93
0
0
2
122
19
2
19
13
11
18
68
19
6
5
17
55
78
27
21
3
3
44
110
34
1
21
63
24
26
32
32
12
9
37
57
7
14
60
104
3
0
0
1
6
0
16
108
25
0
0
24
2
9
70
108
16
0
1
7
33
27
55
76
70
13
3
11
114
40
36
77
29
4
2
18
3
2
7
114
114
1
0
0
1
0
0
8
20
4
22
101
19
7
8
106
75
5
5
8
114
20
8
41
39
40
40
44
4
1
0
25
114
88
31
4
6
1
1
3
1
0
45
114
8
0
3
29
7
1
23
100
2
0
4
79
65
28
29
11
0
0
6
47
42
61
46
2
12
4
17
30
72
21
24
39
82
7
23
24
12
0
1
95
51
0
0
0
0
0
1
71
0
0
0
0
0
0
0
0
144
24
37
13
14
4
10
144
51
8
32
48
110
13
3
32
144
19
0
2
7
3
1
59
3
1
0
0
0
0
0
0
144
90
1
3
13
2
0
74
51
21
33
65
94
5
1
8
144
48
15
12
4
0
0
54
20
1
0
0
0
0
0
13
144
25
4
0
0
0
0
79
64
25
70
58
23
13
4
9
92
3
11
37
29
7
1
63
38
0
0
0
0
0
0
25
16
0
0
0
1
43
127
61
4
1
0
0
0
5
127
96
2
1
2
1
0
1
127
79
3
2
1
1
0
3
121
69
24
3
5
22
15
127
50
25
127
51
17
4
0
13
52
72
31
47
95
40
3
2
54
26
27
66
29
10
0
2
45
42
16
10
54
127
27
11
1
1
127
38
21
29
5
0
0
63
69
12
24
23
20
11
3
49
5
10
6
23
18
18
60
17
0
0
17
85
47
0
0
0
65
15
41
46
10
0
0
27
102
9
3
14
3
0
0
43
2
0
3
72
22
5
5
1
14
11
6
5
12
22
21
14
38
32
30
67
58
12
2
2
125
89
7
6
2
0
0
2
35
12
0
1
17
18
3
4
123
17
2
1
1
26
11
26
60
22
22
40
37
34
2
9
125
32
5
5
6
6
1
39
27
4
0
1
35
48
6
11
125
25
0
0
0
7
12
37
51
52
42
5
11
16
8
19
96
125
58
16
10
5
1
12
10
7
11
23
85
101
11
7
84
14
5
2
0
2
37
77
125
42
3
0
0
1
22
60
117
125
36
23
44
48
10
10
0
5
13
34
125
96
2
2
7
0
1
1
6
18
116
72
7
8
1
2
8
79
126
35
54
26
0
0
2
25
97
55
54
36
20
25
2
3
26
30
4
2
1
2
12
112
41
4
121
34
1
0
1
27
39
30
81
51
2
0
0
0
10
42
47
12
4
10
1
0
60
126
4
9
119
20
8
21
8
0
92
31
94
6
0
2
9
34
16
2
46
4
0
0
84
45
0
0
24
2
0
0
115
42
0
1
126
14
0
0
0
1
1
3
126
20
0
0
1
2
0
0
126
22
0
0
9
3
0
0
126
17
0
0
14
1
15
1
6
9
51
20
6
24
59
8
3
1
0
2
9
80
96
121
37
13
9
2
3
7
6
38
42
82
115
8
5
2
9
26
90
32
24
4
0
3
107
28
60
36
3
0
0
25
121
106
8
6
29
29
22
80
12
15
10
48
121
77
17
9
38
49
23
9
4
0
0
0
31
49
93
70
4
0
0
2
121
72
17
17
13
16
14
50
9
5
1
41
84
68
19
8
71
97
7
0
0
2
0
0
20
72
69
42
21
45
6
2
60
30
12
20
15
10
2
4
6
2
0
40
118
8
3
3
26
8
16
27
52
44
4
5
101
73
39
3
5
9
2
10
2
11
19
0
1
0
0
0
0
0
0
0
0
0
0
0
67
3
0
15
126
72
9
24
163
89
13
1
1
3
3
42
18
25
9
0
1
0
0
3
0
0
0
0
0
0
0
0
88
1
0
72
163
43
4
32
163
46
0
0
6
5
4
150
36
15
0
0
0
0
1
24
0
0
0
0
0
0
0
0
56
14
22
39
153
54
9
21
163
46
6
9
5
2
0
109
47
9
0
0
0
0
0
19
0
0
0
0
0
0
0
0
0
0
0
10
15
8
71
70
3
0
0
1
21
44
109
45
5
7
7
0
10
31
120
98
29
23
19
5
20
30
70
47
0
1
11
28
107
28
39
18
24
6
28
40
14
32
120
54
120
65
53
9
2
9
32
58
114
74
62
10
0
0
2
23
0
31
94
46
41
7
0
0
18
43
120
120
3
1
1
4
120
72
63
33
0
0
0
30
89
64
55
7
0
0
0
60
2
14
30
13
3
0
0
5
2
11
36
34
2
1
3
7
23
18
26
18
3
1
1
15
23
3
0
0
0
0
10
120
4
41
36
111
68
0
0
0
48
124
58
50
13
0
0
2
31
124
83
61
9
0
0
8
11
37
46
111
23
21
16
10
24
30
20
27
14
3
1
1
124
124
58
33
3
0
0
6
45
85
99
72
17
10
1
2
13
16
14
60
103
36
2
2
29
2
0
0
0
4
2
14
124
8
4
4
8
9
3
70
46
4
10
23
78
94
18
23
5
0
0
23
94
22
14
19
4
0
0
0
4
22
11
16
114
0
0
1
7
13
15
124
36
0
1
50
66
24
3
32
16
0
0
11
38
5
3
23
0
0
0
0
0
0
5
2
5
0
0
0
0
0
1
2
1
0
0
0
1
0
0
1
0
0
0
0
1
0
0
1
17
5
5
0
0
4
50
32
128
15
3
4
4
1
13
34
84
25
8
37
41
0
1
30
55
27
5
63
108
1
0
34
31
117
62
14
5
2
2
3
128
53
46
25
9
2
0
25
122
90
30
31
13
3
7
25
46
68
10
28
128
17
14
22
74
85
12
9
29
58
7
16
123
42
12
15
34
58
20
127
60
31
3
2
29
96
66
93
12
1
0
0
66
119
76
70
44
18
0
1
4
36
54
80
44
44
1
0
1
22
23
67
1
2
1
2
14
109
29
1
31
5
2
0
5
48
41
75
24
6
58
51
0
0
11
93
112
15
11
12
5
12
21
112
15
4
11
75
79
58
10
3
95
86
24
21
27
26
11
22
5
24
112
112
0
0
0
0
111
56
112
64
1
0
0
5
27
48
80
56
25
0
0
2
42
112
110
15
4
0
0
0
0
8
56
35
0
0
0
0
1
12
112
60
0
0
0
0
1
56
90
13
0
0
0
0
33
64
26
7
0
0
0
0
16
0
0
9
73
35
1
8
70
3
5
25
7
0
0
21
18
6
11
55
1
0
0
2
39
4
2
18
10
0
0
9
11
0
6
141
59
1
0
3
141
8
3
35
11
0
0
22
25
5
9
59
20
0
0
1
36
9
8
16
4
0
0
5
1
1
7
141
92
12
5
0
117
17
5
87
47
0
0
2
42
7
13
39
16
0
0
0
11
30
43
13
3
0
0
1
42
32
38
81
47
9
12
14
21
92
138
83
46
0
0
0
13
141
141
8
1
0
0
0
0
141
141
3
0
0
0
0
13
53
12
70
84
0
0
0
90
128
17
20
44
9
0
1
100
128
19
13
52
14
0
1
66
94
1
0
0
0
0
0
44
107
16
49
78
0
0
0
52
123
16
23
128
32
0
4
128
52
3
4
31
10
1
31
43
10
0
0
0
0
0
8
52
102
20
26
59
3
0
0
59
36
0
6
128
46
0
6
128
20
0
0
26
9
0
33
11
2
0
0
0
0
0
1
25
60
45
28
41
3
0
0
15
14
31
33
128
24
0
3
49
9
26
2
14
1
0
28
0
0
0
0
0
0
0
0
0
0
0
4
1
0
0
0
46
0
0
38
32
25
36
14
128
1
0
1
23
24
13
59
18
0
0
0
37
46
25
23
0
0
0
6
14
0
0
0
48
4
0
75
128
2
0
4
128
9
0
9
73
33
0
33
59
0
0
0
87
72
16
45
0
0
0
11
22
0
0
0
26
4
0
74
128
22
1
3
128
9
0
11
77
96
13
39
46
0
0
0
68
107
18
71
0
0
0
3
43
23
0
0
27
2
0
7
128
128
9
10
65
6
2
2
118
80
13
24
32
0
0
0
66
58
12
83
9
47
18
11
5
32
53
4
72
18
2
0
0
19
75
53
141
18
0
0
0
0
2
42
25
2
0
4
10
0
0
6
28
8
0
3
47
141
80
12
141
76
0
0
0
12
60
50
141
58
0
0
0
0
0
18
23
0
0
0
6
3
2
17
77
28
0
10
43
62
4
5
141
36
0
0
0
0
0
108
141
5
0
0
0
0
0
116
13
0
0
0
0
0
0
28
49
15
11
21
48
2
0
4
141
42
0
0
0
0
0
24
141
21
0
0
0
0
1
35
12
0
0
0
0
0
3
18
75
38
0
7
2
2
25
40
109
28
0
3
5
2
16
65
3
0
0
14
63
14
14
14
1
3
4
7
18
18
8
1
96
37
2
52
24
5
24
36
53
20
0
0
0
91
125
61
84
19
8
22
21
12
60
94
5
8
35
54
11
4
3
2
4
0
2
125
98
7
29
17
65
19
12
17
7
49
72
26
125
60
9
11
1
3
10
81
22
12
24
74
25
6
3
9
0
0
1
124
124
0
0
0
11
4
6
52
58
18
13
23
104
2
0
4
3
6
34
125
19
4
2
6
15
26
95
75
0
0
0
0
0
45
115
0
0
0
0
0
0
87
115
0
0
0
1
2
0
115
115
0
12
4
0
0
0
39
107
11
11
1
0
1
7
49
115
6
63
58
37
10
1
33
98
10
7
17
81
115
2
31
40
1
44
51
31
27
0
6
11
5
17
26
115
52
9
3
2
5
115
66
54
26
1
0
0
36
51
45
82
102
0
0
0
10
2
64
115
46
1
1
1
0
1
15
115
70
7
17
8
1
19
59
78
45
5
18
13
4
16
40
13
0
0
2
43
19
1
4
17
3
1
4
25
7
4
1
0
7
10
18
55
13
76
12
0
0
0
3
36
128
46
4
0
16
11
0
7
69
0
0
0
18
42
13
4
1
12
2
6
128
25
9
13
2
128
47
3
19
0
6
14
35
63
14
0
1
2
70
92
50
27
4
7
21
21
9
52
53
2
0
11
128
16
0
0
0
47
3
2
128
32
17
49
49
38
5
4
6
2
126
97
35
128
17
7
3
0
8
18
76
0
0
4
128
20
0
0
0
0
0
2
128
66
2
4
0
10
8
14
67
24
13
10
5
66
3
0
1
2
6
19
128
126
108
28
126
84
0
0
0
126
116
20
1
0
0
0
1
74
79
6
0
0
0
0
3
2
2
0
0
0
0
0
0
82
126
58
112
57
0
0
0
111
126
7
3
22
11
10
16
126
20
0
0
2
3
6
50
8
0
0
0
0
0
0
1
105
30
7
20
43
0
0
8
83
21
1
10
73
13
2
8
126
12
0
1
7
2
0
9
11
0
0
0
0
0
0
0
80
15
1
12
27
3
1
2
66
24
13
44
23
5
0
2
123
47
4
5
2
0
0
1
6
2
0
0
0
0
0
0
0
0
0
0
0
4
25
4
0
0
0
0
0
9
5
0
0
0
0
0
0
0
0
0
0
0
0
0
0
0
0
0
0
0
0
0
1
59
135
22
8
2
2
9
33
135
100
3
90
6
2
3
4
28
4
12
8
0
0
0
0
0
0
4
1
0
0
2
3
25
135
114
13
12
35
73
41
73
45
29
135
40
32
18
4
6
28
112
26
0
0
0
0
0
77
135
2
3
15
32
4
1
61
94
0
1
7
16
6
2
127
135
8
3
8
2
0
0
64
131
1
0
0
0
0
0
74
121
0
69
129
4
9
24
10
3
2
114
129
0
0
4
20
7
11
112
128
1
0
1
7
3
6
129
103
1
0
0
0
0
0
51
117
15
3
4
0
0
9
18
48
78
31
52
52
14
129
129
5
7
2
9
36
47
55
129
16
0
0
0
0
0
0
84
129
28
0
0
0
0
7
15
65
129
22
7
3
3
121
16
5
19
2
1
3
11
24
14
0
0
0
0
0
0
0
4
10
0
0
0
0
0
0
0
0
0
0
0
0
0
0
0
0
0
0
0
0
0
0
0
0
0
0
0
0
0
7
0
0
0
2
11
90
131
5
0
0
0
1
9
31
139
1
0
0
0
19
98
15
8
2
1
1
11
26
76
10
1
32
0
0
0
41
44
64
107
139
5
0
0
6
4
16
139
33
1
0
13
84
54
8
14
2
1
1
13
18
24
21
5
98
16
0
2
54
19
2
7
139
74
0
3
4
0
0
9
45
15
1
86
64
4
0
0
5
0
0
52
45
4
4
4
58
112
10
27
21
0
0
0
139
139
1
1
12
2
0
0
12
14
1
13
64
61
12
0
7
15
11
11
51
22
9
1
6
4
4
22
33
71
18
4
31
7
6
17
57
14
2
6
145
11
1
3
18
4
0
9
44
0
0
0
11
18
36
91
7
0
0
51
39
23
29
17
44
2
1
11
61
79
10
28
145
4
0
3
16
18
3
28
36
22
24
24
63
20
12
3
15
14
10
57
124
23
6
2
55
32
19
86
56
14
1
4
145
30
4
22
12
3
0
5
117
50
16
9
5
0
0
2
56
103
50
16
40
38
20
7
36
34
43
43
144
71
4
8
145
3
0
3
17
17
4
22
129
15
0
0
0
0
0
16
30
42
63
11
17
27
14
3
104
36
10
0
0
7
25
50
37
3
0
1
5
11
11
15
27
3
0
0
1
3
3
3
48
8
2
1
22
161
71
35
161
17
1
1
2
43
70
104
92
21
4
24
20
5
0
7
36
21
0
2
2
0
0
0
58
30
11
77
95
51
10
13
161
51
5
12
8
8
4
21
118
26
3
6
20
12
0
9
30
43
0
0
1
0
0
0
33
41
31
161
34
0
0
0
161
68
8
45
11
0
0
0
91
22
2
2
1
2
1
5
29
11
0
0
0
0
0
3
6
7
7
25
81
23
7
0
18
21
12
41
34
7
0
1
138
33
3
19
12
3
0
1
62
21
5
4
4
0
0
0
51
106
48
13
30
35
20
7
21
35
48
39
131
75
3
4
138
14
0
4
21
24
4
12
103
18
0
0
0
0
0
6
62
92
7
5
40
109
6
9
61
8
2
6
121
138
11
10
138
20
0
0
7
17
3
11
83
3
0
0
0
0
1
33
25
3
2
18
80
59
10
27
70
25
13
53
85
63
3
4
138
37
1
0
0
1
0
2
19
2
1
0
4
1
2
16
0
0
0
69
86
0
0
0
32
10
2
72
110
13
23
40
126
48
7
17
11
2
7
59
48
11
8
50
64
20
4
18
2
0
3
57
51
0
0
1
53
22
6
126
126
0
0
2
126
75
4
17
31
19
13
48
33
24
8
16
126
65
16
21
0
0
4
90
40
0
0
0
16
4
3
126
122
0
0
1
102
10
3
35
34
26
26
66
33
10
2
5
30
54
22
40
0
0
0
62
93
1
0
0
0
0
0
67
85
1
0
1
11
2
0
58
84
5
19
37
19
5
3
12
8
1
7
30
44
0
0
3
6
6
13
91
15
1
2
6
24
30
29
45
26
1
1
12
3
4
34
117
6
6
4
69
37
4
9
14
11
0
0
35
50
9
38
86
112
15
18
39
9
6
22
101
88
11
19
84
26
6
11
68
88
30
8
24
24
1
3
39
30
12
3
118
107
4
6
10
118
63
5
22
32
7
6
42
64
22
7
35
118
48
12
45
118
19
2
3
33
10
5
101
11
3
3
103
63
0
0
0
118
13
3
34
25
20
16
56
37
20
5
11
56
61
19
34
67
31
2
2
14
2
8
49
7
19
16
106
107
1
1
3
55
102
24
41
25
2
1
7
120
86
10
34
22
1
0
9
107
40
0
13
46
10
3
10
2
10
18
72
45
1
1
2
7
35
18
30
63
53
28
3
120
18
0
5
14
19
26
60
118
2
3
10
19
19
11
47
2
6
3
23
41
2
1
1
5
9
2
57
120
15
8
4
120
37
2
7
21
8
38
117
97
3
2
4
1
0
2
120
3
0
0
2
28
6
4
5
0
7
4
21
120
23
3
1
31
102
30
15
38
7
18
36
72
17
11
9
1
0
1
113
2
0
0
100
103
6
4
4
19
5
14
54
48
84
40
11
117
38
5
3
1
20
11
10
38
13
2
3
3
0
0
0
3
1
1
90
117
5
3
8
14
7
25
106
117
50
2
3
117
19
10
7
5
12
2
27
55
5
2
2
2
3
2
10
17
21
14
27
117
10
1
5
18
18
31
26
117
34
0
4
71
50
32
3
2
28
19
27
47
1
0
2
2
5
11
48
30
5
1
3
117
105
1
4
36
2
0
1
116
104
12
40
39
2
2
4
33
113
33
41
117
2
1
3
2
6
13
69
2
40
38
31
62
15
11
1
76
123
17
21
42
12
11
3
85
123
4
5
50
26
3
2
17
43
13
9
75
59
20
3
6
15
6
7
105
49
21
10
123
116
4
1
10
11
23
37
101
34
3
20
61
57
20
15
55
41
6
16
73
71
6
23
11
33
32
7
92
65
10
23
123
51
24
4
4
3
6
102
98
6
5
35
58
20
2
29
16
19
17
45
67
18
2
12
2
67
50
14
22
14
2
1
118
30
36
24
14
2
1
25
90
10
2
3
31
20
6
28
6
32
9
9
44
40
22
6
10
0
7
14
16
19
43
125
11
1
0
0
1
7
125
125
1
2
4
5
1
2
125
70
0
0
9
23
3
3
89
37
17
3
35
89
44
23
7
19
39
4
17
45
12
60
114
85
97
29
16
5
1
18
125
102
21
28
26
3
0
0
105
72
1
1
53
112
2
0
0
0
13
7
51
125
26
12
4
2
125
40
30
52
8
3
2
39
39
16
16
21
20
10
19
18
1
0
2
19
5
7
7
3
0
0
16
96
14
1
2
3
44
32
54
56
4
0
0
7
32
15
5
23
24
1
0
4
5
1
2
50
41
14
18
10
20
23
9
18
16
48
13
13
28
3
0
0
9
86
40
32
37
2
2
3
4
1
8
25
3
0
0
126
126
9
12
14
11
3
4
37
56
126
73
34
126
35
3
2
9
92
31
28
94
23
1
2
4
0
0
7
5
2
1
126
108
2
1
5
6
5
41
126
126
46
8
1
126
24
28
23
12
20
5
34
104
9
2
2
0
1
0
16
15
12
6
35
66
3
6
21
1
4
13
67
126
31
0
1
83
46
31
10
20
21
4
21
64
5
0
0
0
3
7
45
41
54
101
16
19
17
4
21
133
28
10
3
2
0
0
24
66
4
2
19
61
35
2
5
17
12
17
32
60
18
2
6
23
37
55
32
29
10
8
7
133
46
16
17
13
2
0
14
59
23
8
4
52
52
9
14
5
57
33
18
51
49
12
6
93
8
7
6
4
20
15
47
133
80
17
12
14
8
1
29
29
16
7
15
82
88
54
34
3
6
1
0
22
93
94
34
92
18
14
3
5
2
11
97
133
73
11
12
29
31
16
57
9
15
8
30
133
102
21
11
7
2
0
4
21
24
66
36
0
0
0
0
1
0
0
1
0
0
0
0
0
0
1
1
2
0
0
0
0
0
0
0
0
0
0
0
0
0
0
0
5
2
0
0
108
14
18
33
51
13
4
0
0
0
48
55
134
16
4
8
2
0
4
31
60
32
11
22
22
0
0
18
27
53
1
6
134
3
2
6
72
134
71
6
3
4
5
11
134
68
38
9
3
5
2
24
81
87
18
12
25
19
28
20
88
24
0
1
125
7
2
21
113
74
15
6
24
66
15
37
113
34
17
8
18
56
39
134
23
6
1
2
8
116
134
52
3
0
3
22
106
85
18
14
110
1
0
0
12
42
30
136
40
2
0
5
19
102
75
90
56
23
23
52
49
24
53
89
12
0
0
49
136
20
3
8
136
22
4
9
65
16
8
64
57
11
5
27
136
54
23
51
77
0
0
0
9
50
86
136
6
0
0
22
133
0
0
0
114
4
0
4
32
1
0
4
16
2
0
2
70
24
7
8
0
0
0
0
9
67
54
40
0
0
0
0
0
0
0
0
0
0
0
0
0
0
0
0
0
0
0
0
0
0
0
0
0
0
0
0
0
0
0
0
15
3
11
49
26
35
20
11
33
47
41
50
14
19
54
42
93
22
1
0
0
0
22
120
53
0
0
0
1
1
8
40
31
3
7
30
8
18
35
26
12
16
19
39
35
133
71
12
133
32
0
0
0
22
70
76
123
14
0
0
2
0
0
19
14
17
17
62
44
31
29
6
57
8
2
44
102
133
28
5
133
27
0
0
1
10
7
68
100
6
0
0
0
0
0
48
18
7
8
23
63
44
6
20
40
12
6
36
129
40
0
1
133
43
1
1
0
0
0
13
95
7
0
0
0
0
0
19
6
0
0
0
16
28
49
41
13
0
0
0
19
34
134
111
33
0
2
19
46
21
37
89
0
0
4
35
27
10
4
0
0
0
0
12
67
35
81
49
73
5
3
15
97
37
48
78
134
20
6
23
16
1
4
112
22
13
9
56
63
16
0
1
13
12
7
114
89
7
22
16
92
71
41
36
17
3
9
18
134
76
11
17
22
2
1
28
39
14
4
49
92
13
3
9
2
11
18
90
31
0
1
0
30
36
21
31
24
23
5
10
134
4
1
3
6
8
6
110
18
0
5
40
37
6
3
32
6
8
3
6
134
107
1
1
19
29
30
10
75
46
8
4
99
37
6
0
0
2
7
25
21
3
0
1
1
3
5
6
9
1
0
0
71
134
26
26
28
6
5
1
18
105
79
51
134
11
1
1
1
19
39
77
39
14
2
5
2
1
1
3
33
43
9
14
111
87
6
10
58
49
25
84
35
28
11
13
134
51
6
13
4
4
3
10
53
27
1
1
1
0
0
1
15
74
68
106
30
1
0
0
20
68
41
116
23
0
0
0
134
81
10
28
5
0
0
0
39
22
0
0
0
0
0
0
15
28
6
13
83
64
4
1
12
41
44
31
58
24
2
1
127
6
4
12
29
14
3
21
127
11
0
0
0
0
0
14
32
40
5
16
104
41
5
14
35
39
9
10
127
127
8
13
127
3
0
2
40
61
8
40
118
0
0
0
0
0
2
65
11
3
9
62
66
19
6
21
15
9
14
89
127
52
6
13
127
32
9
31
21
7
1
5
81
15
4
0
0
0
2
14
4
16
15
27
45
7
2
4
3
12
18
68
103
14
1
0
127
5
1
15
40
3
0
6
112
9
0
0
0
0
0
5
9
0
0
89
69
0
0
5
64
1
0
19
18
5
18
115
16
1
2
3
7
29
40
76
24
2
2
24
5
1
19
88
0
0
0
90
86
3
0
0
20
2
0
91
120
13
32
79
120
24
15
25
14
6
21
102
92
11
13
28
23
7
7
60
0
0
22
60
32
7
0
0
32
13
6
120
120
1
1
4
120
48
7
36
44
16
10
41
76
19
2
8
83
34
11
43
0
0
21
120
30
0
0
0
4
1
2
120
79
0
0
0
42
3
4
54
38
17
21
38
29
6
1
0
6
25
17
52
0
1
1
0
8
21
112
27
10
0
1
3
0
3
65
60
8
0
3
27
5
0
2
18
0
0
0
13
3
0
4
30
15
12
59
19
45
46
118
55
118
27
14
0
0
0
56
104
58
2
1
6
6
38
31
24
3
1
2
10
6
17
35
29
5
16
118
86
12
1
0
1
104
56
105
29
5
4
1
7
33
6
1
0
104
101
28
13
37
0
0
0
22
41
48
118
1
0
47
118
40
4
6
4
1
3
33
97
35
29
17
0
1
2
5
30
118
118
27
4
57
4
7
6
39
45
15
118
12
7
4
47
142
36
14
8
38
1
0
22
42
37
60
18
142
0
0
0
0
2
7
30
83
0
0
0
0
0
3
32
10
8
6
35
86
82
26
23
60
8
5
96
73
5
1
3
142
5
1
4
4
0
0
15
36
36
7
0
0
0
9
20
2
18
18
54
62
37
9
1
45
10
3
24
93
63
5
2
142
9
0
2
8
2
0
6
142
111
2
0
0
0
0
0
0
0
0
10
118
40
5
0
33
3
5
17
21
48
4
2
142
11
1
1
0
1
0
5
142
41
0
0
0
0
0
3
3
24
38
10
0
0
2
4
45
48
36
1
1
2
2
9
142
42
1
0
0
0
0
9
55
2
0
0
0
0
0
0
23
17
16
4
7
25
31
74
38
19
17
8
33
78
34
55
142
24
1
0
1
5
13
116
71
1
0
0
0
0
0
5
38
48
85
0
2
9
30
106
48
115
80
27
24
20
8
25
142
142
25
3
1
1
1
15
67
7
0
0
0
0
0
0
4
62
142
0
0
0
0
0
7
115
125
0
0
0
0
0
79
110
16
0
0
0
0
0
24
6
0
0
0
0
0
0
7
0
0
0
0
0
74
56
2
0
0
0
0
2
130
129
18
0
0
0
2
9
130
130
4
0
0
3
9
40
130
107
6
0
0
0
0
10
13
12
24
1
0
0
1
27
19
26
130
14
3
19
11
15
23
46
24
18
25
97
46
55
72
37
7
0
0
0
4
21
9
13
35
58
5
0
2
10
4
12
74
62
14
26
36
29
31
21
37
8
4
26
61
130
94
23
17
14
0
0
4
9
0
1
78
43
1
0
0
0
0
15
39
27
11
26
97
69
11
23
71
38
2
16
130
68
5
1
3
5
2
27
57
4
3
3
64
58
2
2
2
1
2
13
18
42
62
125
28
1
0
1
2
32
99
94
13
0
0
0
11
5
2
85
127
14
8
10
127
52
2
5
10
6
9
42
46
25
10
16
18
48
4
7
0
0
9
35
69
33
1
0
7
5
1
118
127
4
4
4
120
29
2
11
41
8
41
119
50
18
8
26
20
34
14
47
0
0
0
25
50
26
0
0
0
0
0
62
127
2
1
0
127
14
0
13
97
9
7
67
106
27
10
30
22
12
12
59
0
0
0
28
57
19
1
0
34
16
3
6
12
16
6
28
16
11
8
60
142
77
5
6
142
73
5
10
22
3
0
2
142
17
0
0
0
0
0
11
9
54
14
11
23
13
1
4
19
10
9
80
140
87
4
3
142
29
5
12
13
17
4
28
142
4
0
0
0
0
0
29
17
6
0
0
19
74
25
70
18
13
8
22
106
99
3
1
142
36
7
7
5
4
3
52
95
0
0
0
0
0
7
87
63
26
1
10
33
25
4
26
22
4
1
9
26
30
4
2
99
21
6
1
0
2
9
25
8
9
10
0
0
1
21
43
4
0
0
0
10
30
11
13
64
17
0
0
0
2
21
58
27
47
7
1
3
10
12
44
1
9
3
19
100
63
3
0
0
0
0
0
66
70
43
38
22
0
0
0
2
79
123
123
96
6
0
1
8
38
63
123
4
1
1
8
52
93
9
6
1
7
9
26
123
27
20
12
59
90
35
9
15
49
37
28
123
123
6
10
27
13
4
32
8
8
7
29
68
21
1
1
0
6
18
52
75
6
1
0
105
115
40
8
7
5
3
4
89
123
4
3
53
23
0
3
2
16
9
11
48
37
2
1
8
0
0
0
23
74
115
55
119
1
3
13
17
13
59
134
19
3
12
67
45
6
0
5
32
5
16
14
9
2
0
30
28
38
11
21
37
37
38
13
134
89
7
8
13
3
1
44
76
24
9
51
98
4
0
5
16
12
11
20
93
21
3
20
13
54
45
79
24
3
2
4
134
46
5
3
9
4
4
115
65
3
4
54
70
6
4
59
4
2
21
70
55
11
3
2
0
0
6
61
64
2
1
1
73
7
1
16
40
3
5
134
59
4
2
21
5
1
2
134
1
1
17
35
20
16
2
12
37
13
3
0
0
0
0
5
154
39
0
0
0
0
0
0
150
11
0
0
0
0
0
0
0
0
0
0
0
0
0
0
24
46
46
3
1
11
7
15
154
70
5
0
0
4
5
39
154
13
0
0
0
0
0
2
0
0
0
0
0
0
0
0
29
48
32
4
8
33
29
73
154
111
17
2
3
12
9
63
150
14
0
0
0
0
0
5
0
0
0
0
0
0
0
0
10
114
154
0
0
0
0
5
105
154
38
0
0
0
0
0
53
23
0
0
0
0
0
0
0
0
0
0
0
0
0
0
3
8
12
64
104
29
12
1
44
16
6
4
3
19
50
51
27
4
0
0
0
0
3
19
0
0
0
0
0
0
0
0
8
2
0
99
143
37
11
4
143
32
0
16
48
25
29
35
80
35
0
0
0
0
0
8
0
1
0
0
0
0
0
0
18
5
0
50
143
74
4
3
143
17
1
19
71
23
22
87
93
7
0
0
0
0
0
57
1
0
0
0
0
0
0
0
6
4
6
11
143
143
12
2
119
27
25
2
14
56
44
89
143
15
0
0
0
0
0
48
3
1
0
0
0
0
0
0
1
4
16
54
128
13
3
0
78
135
43
15
11
6
11
4
88
135
5
10
52
9
0
4
23
7
3
27
44
11
1
2
18
2
3
21
126
43
0
4
135
91
6
5
20
12
0
16
78
38
1
15
92
43
0
3
50
8
1
17
53
64
5
7
13
18
32
32
85
32
0
2
135
61
21
4
9
4
0
29
77
1
0
40
69
30
7
19
59
20
3
38
62
24
2
1
2
5
17
22
27
23
9
8
131
23
8
1
4
8
11
55
44
1
0
1
55
98
23
14
88
5
0
0
15
46
20
16
132
30
10
4
9
3
1
28
37
0
0
45
68
39
7
13
132
32
2
22
36
17
2
3
81
31
0
0
0
0
0
7
132
21
8
3
11
14
12
68
49
1
0
3
98
132
32
24
132
10
0
1
14
37
18
32
122
9
0
0
0
0
0
11
57
80
76
25
23
11
6
35
41
11
8
29
132
57
8
14
132
68
3
6
15
5
1
14
51
40
3
0
0
0
0
14
29
20
17
8
40
14
1
7
30
4
2
7
89
49
1
1
132
80
0
0
3
4
0
1
53
45
1
0
0
0
0
0
0
0
22
97
65
10
70
37
2
3
90
126
41
14
45
34
2
2
41
72
13
2
83
126
0
0
1
5
1
0
68
126
26
11
10
23
21
43
126
81
126
59
66
66
16
19
110
74
17
20
102
126
12
1
8
10
0
0
7
24
1
0
3
6
18
39
88
71
20
14
11
5
126
69
38
6
1
5
58
93
16
4
10
32
3
2
67
47
0
0
0
1
0
0
0
0
0
1
11
6
4
6
2
0
1
1
4
2
2
13
15
4
0
0
0
0
0
1
8
2
0
0
0
0
0
0
0
0
8
0
0
0
0
0
112
80
10
0
0
1
10
22
152
80
64
0
0
0
1
3
92
152
18
0
0
0
0
0
23
69
44
18
0
1
4
2
7
17
39
5
0
3
55
88
26
32
152
4
0
0
4
16
16
103
96
1
0
0
0
0
1
21
53
29
1
2
18
7
1
3
59
25
2
10
152
45
3
5
152
66
0
1
10
4
1
12
75
2
0
0
0
0
0
6
22
22
2
3
21
13
5
27
66
16
2
11
88
28
1
1
152
34
0
0
1
0
0
14
26
1
0
0
0
0
0
4
18
0
0
0
0
0
0
5
155
1
0
0
0
0
0
1
39
0
0
0
0
0
0
0
0
0
0
0
0
0
0
0
62
28
31
1
0
0
4
8
173
27
1
0
0
0
0
11
155
0
0
0
0
0
0
2
0
0
0
0
0
0
0
0
34
71
76
2
0
7
55
35
173
138
13
0
0
0
1
43
148
13
0
0
0
0
0
5
0
0
0
0
0
0
0
0
4
114
173
0
0
0
3
2
85
173
44
0
0
0
0
0
41
19
0
0
0
0
0
0
0
0
0
0
0
0
0
0
0
0
0
0
0
0
2
0
0
0
0
0
0
1
147
44
5
0
0
0
0
10
147
96
30
0
0
0
0
21
147
147
0
0
0
0
0
1
0
0
12
0
0
0
1
24
31
12
83
9
0
1
34
17
29
39
147
6
0
4
69
43
25
93
0
0
0
0
0
4
0
0
28
2
0
0
2
40
27
25
103
21
0
10
44
9
18
64
147
15
0
19
94
14
2
24
0
0
0
0
7
7
0
0
7
4
1
5
52
86
62
37
67
26
1
2
12
23
67
147
79
6
0
2
24
28
10
36
0
0
0
0
0
2
16
3
8
14
1
0
0
1
27
12
18
57
7
0
0
3
9
15
58
19
1
0
0
7
20
110
20
6
5
2
10
76
76
43
131
58
9
0
0
4
29
81
18
79
24
0
14
91
10
4
54
131
10
0
4
80
39
15
17
111
124
10
15
31
7
9
130
88
47
2
4
17
31
37
44
131
7
0
9
77
45
11
44
131
17
0
3
13
0
0
3
75
27
0
4
37
8
1
9
95
23
2
7
24
8
0
71
131
17
0
0
1
2
0
38
58
0
0
0
0
0
0
0
0
0
0
8
11
2
2
64
0
0
6
11
11
22
64
65
3
1
72
77
13
21
68
98
0
0
5
13
2
10
122
0
0
0
0
14
15
1
0
21
2
1
10
70
99
122
75
106
17
2
13
39
33
122
122
107
3
1
11
19
6
5
108
0
0
0
2
9
1
0
0
30
15
10
116
115
24
9
9
122
50
10
40
25
4
7
77
73
4
1
36
41
5
1
65
0
0
0
0
0
0
0
0
3
1
2
48
43
0
0
1
102
9
9
37
24
2
2
85
38
1
0
9
38
38
9
65
0
0
0
0
0
0
0
0
0
0
0
0
0
3
12
2
5
6
1
0
0
1
31
15
15
33
6
0
0
0
15
20
0
0
0
0
2
37
6
0
10
8
17
7
20
121
84
30
121
68
18
0
1
15
67
108
35
88
34
0
6
66
15
5
1
46
18
7
21
86
14
0
8
121
121
17
20
70
11
5
121
121
116
5
7
25
33
32
43
121
15
0
5
70
50
12
22
93
27
11
7
13
18
8
10
114
32
0
3
54
32
10
8
121
41
2
5
31
11
0
49
121
24
0
0
0
1
0
